<?xml version="1.0" encoding="UTF-8"?>
<svg enable-background="new 94 195 1200 545" version="1.1" viewBox="94 195 1200 545" xml:space="preserve" xmlns="http://www.w3.org/2000/svg">
	<rect x="94" y="195" width="1200" height="545" fill="#fff"/>
<g fill="#005F8B" stroke="#fff">
	<path d="m898.9 612.2l0.6 0.4 2.3 3.2 1.6 0.5 2.2 1.4 1.6 3.5 0.2 2.4-0.5 2.9 0.4 2.3-0.9 0.9 0.8 2.2 0.3 2.1 1.4 2.4 1.4 1.2 1.5 2.6 1.8-0.3 1.5 1.2v1.2l1.3 2-0.8 2.9-1.9 0.9-1.3 3.5-0.3 2.2-0.7 0.6-2.1 0.4-1.9 1.5 1.2 2.4-1 0.8-0.3 1.7-0.8 0.8-3-0.9-0.8-2.8-2-3-5.5-2.8-1.4-1.2 0.4-1.7-0.1-1.6-1.6-2.6 0.3-2.9 0.8-2.5-0.4-3 0.1-2.3-0.9-3.2 0.5-2.4 1-1.5-0.3-2.4-1.7-1.2-1.8-0.2-0.1-3.5-0.3-0.7h1.9l-2-3.1 3.4-6 1.2 0.3 0.9 2.3 3.8-0.9v0z" stroke-linecap="round" stroke-linejoin="round" stroke-width=".5"/>
	<path d="m641.1 618.8l-3.1 1.3-0.8-0.4-0.1-2.3 1-0.8 2.9 0.6 0.1 1.6v0z" stroke-linecap="round" stroke-linejoin="round" stroke-width=".5"/>
	<path d="m1256.6 653.6l-3.6-3-2.6-1.8-1.8-0.7-3.9 0.5-3.3-0.9-2-1 0.5-0.7-2.2-3.3-0.9-2.1 1.1-1.6 0.2-2.6-2-3.6-1.9-1.3-1.5-1.8 4.9-0.4 5.9-1.6 3.6 0.3 1.2-0.3 3.9-0.2-0.6-0.8 2.6-0.6 1.5 1.6 1.8 1.1-1 1 2.6 1.1h1.3l3.7 2.7v0.8l-2.1 1.7-0.2 1.2 3.7 3.7 2.7 1.5 3.6 1.6 0.2 1-0.9 2.8-3.3 0.1 0.7 1 2.1 1.3 6.9 4.8 1.7-0.4 2.5 0.9 0.3 1.4-1.1 1.6 2.2 1.5 0.9 1.7-2 0.6 1.6 1.6 0.6 2.9-2.5-0.1-2.8 0.6-3.5-5.2 0.1-1.1-3.5-2.3 0.1-1.9-0.9-1.3-1.9 0.3-2.1 1.1-3.3-1.7-1.3 0.3-0.4-1.2-2-1.8-3.6 1v0z" stroke-linecap="round" stroke-linejoin="round" stroke-width=".5"/>
	<path d="m844.3 509.5l-0.9 2.7 0.1 0.9 1.9 3.2 2.6 3.2-0.7 0.8-0.6 2.1 0.8 2.2-4.3 0.4-2.8-0.9-1.4 1.6 2.9 0.7 0.6 1.2-0.5 1.6-2.4 1.4 0.5 1.7-0.5 0.8 1.3 1.8-0.3 2-2.8 0.6-2 1.9-1.4 1-0.1 2.1-2.7-0.5-1.8 0.3-2.5 1.3-3.1-0.2-2.9 0.3-2.1 0.8-1.2 1.5-3.3 1.4-5.6-0.7-5.6-0.9-2.9-0.5-4.5-0.2-9.6-1.5-1.2-0.5-3.5-3.8-0.1-2.6-5.2 1.8-3.5-0.1-3.8 0.4-1.5 0.7-1.3 2.5-1.2 0.5-2.4-0.4-1-0.9-3.4-0.3-0.6-1.7-0.9-0.3-2.2 2.2-2.6-0.4-1.7-0.9-0.5-1.1-3.7-0.8 0.3-0.9-1.3-2.8 1-3.4-1-0.8 1.9-0.6 0.8-0.6 3.9 1.7 1 1.5 1.3 0.3-0.1 1.5 1.8-0.6 1.1-1.8 0.2-2.1 3.1-0.2 3 0.4 1.6 2.1 4.2-0.7 1.2-1 4.3-1.8 6.3-0.7 0.1-1.6 2.2 0.3 1.7 0.9 2.8-0.6 1.2 0.5 0.3 1.2 1.4 1 1.9 0.4 0.3-1.7-0.4-2.1-1.9-0.3 0.6-1.5-0.1-1.4-2.9-3.1 0.6-1.5 3.4-2.1 3.2-1 1.1-1.1 0.7-3.2 2.6 0.9 1.4-1 0.2-3.1 2.5 1.3 0.9 1.4 4.4 0.3 1.5-0.8 2.8 0.4 0.1-1.2 1.4-1.8h1.3l0.3-3.6 1.3-0.3 1.8 0.9 1.6-0.5 5.4 1.8 1.7-0.1 3.4 1.8 4.2 0.1 1.3-1 5.7 1.5 1.5 2v0z" stroke-linecap="round" stroke-linejoin="round" stroke-width=".5"/>
	<path d="m689.8 476.1l1.8-0.6 0.9 0.9 1.3 0.1 3.4 2.5-0.4 1.7 1.9 0.7 0.5 2.2-2.5 1.5-0.6 1.9-1.9-0.7-1.4 1.5-1.5 2.8-0.2 1.9 2.3 2.6-1.2 1.9-3.8 0.5-3.2-2.8-3.7-1.6-1.9-0.1-0.5-2.2-0.7-0.7 0.8-3-2.1 0.7-0.5 1.6-1.4 0.7-2.4 0.4-2.6-0.3-0.6-0.7 0.7-1.6-0.8-0.8 0.4-1.8-1.8-1.2-4-0.4-1 0.4-0.7-2.2-4.7-1.1-0.6-2.2-1.8-2-3.5 1.2-3.3-2.6v-1.3l-1.1-2.4 5.6-2.9 5.2-2 0.4 1.4 1.4 0.8 1.3-0.7 4.4 1.1 3.5-1.8 0.6-1.4 2.3 0.3-0.2-1 1.5-0.8 1.7 0.9 1.6-1.2 1.3 1.4 2.8-1 0.6 1.8 2.9 1.5 2.1-0.5 1.9 1.4 2.9 1.2-1 3.3-1.2 1.5 0.8 1.3v0z" stroke-linecap="round" stroke-linejoin="round" stroke-width=".5"/>
	<path d="m1015.3 589l0.3 4.1-1 2-2.2-0.6-2.4 0.6-1.1 2.3-1.3 1.4 0.1 2.9 0.6 4.7-1.8 0.8-3.1 4.2 3.4 1.9 2 2.4 2.7 2.7 0.6 1.3-1.9-0.2-1 0.5h-2l-1.7 0.7-3.9-2.7-3.9 0.4-1.6 1.3-3.8 0.5-1.1 2.5-2.1 0.4-0.3 1.6-1.8-0.5-1.8 1.3 0.8 1.1 1.1 3-0.2 0.9-2.8 1.4-2-0.3-3.6 0.5-3.8 1.1-1.9-1.2-4.2-1.2-1 0.7-2.7-1.5-1.4-1.9-1.8 0.6h-4.7l-0.2 1-2.1 0.3-3.3 1.3-2.9-0.2-2.7 0.3-1.1 1.1-3.3-0.1-0.1-4.7 0.5-1.9-1-1.1-2-3.6-3.8-1.9-3.8-3.5 1.1-0.4 1.2-1.9-1.6-3.2-0.1-3.7 1.2-0.7 2-0.2 1.2-1.8 1.7-1.9 0.3-1.6-1.8-1.1-1.5-1.8-3.3-1.6-2.8-4.3-0.7-2.7 0.4-2.6 2.3-1.2 0.2-2.1 1-0.8 4.9 2.7-2 2.3 1 2 4.1-0.8 4.4 0.2 5.9 1 3.9 0.4 2.8-0.6 10.5 1.7 4.7 0.1 2.5-0.7 1.8-1 1.3-1.8 3.6-2.4 3.5-1.4 4.9-1.1 3.2-0.5 5.1 2.5 3.6 0.4 1 0.6 1.9-0.6 2.9 2.8 2.5 0.7 2.9 0.5 2.4-0.1v0z" stroke-linecap="round" stroke-linejoin="round" stroke-width=".5"/>
	<path d="m879.6 572.6l3.1-0.9 1.7 0.9-0.5 2.8-1.7 3v2.9l0.6 0.9 2.7 1.3 3.8 3.1-0.3 0.9h-3.5l-0.5 0.9 3.7 4-0.2 2.5-2.8-0.3-0.8 0.9-3.6 0.6 1.6 2.4-2.6 0.3-2.2 1.9-0.5 1.9 0.1 1.7-1.9 0.3-0.5 0.8 0.7 3.3 1.3 1.8-0.1 0.9-1.2 1.1-1.9-0.7-7-4.1-0.7-1-1.8 0.2-1.2-0.6 0.3-1.8-3.4-2.7-1.7-1.7-0.5-2.4-2.7-1.2-5.7-4.4-1.9-2.2-3.2-2.5-2.6-2.6-1.5-4.4-3.9-3.5-2.2-1.4-0.1-1.6 0.2-5.6 1.3-0.7 2 0.4 1.9 2 2 1.1 2.9-3.6 3.6 0.3 1.6-1.4 3 1.7h2.8l3.1 0.7 1.9-0.7 1.8 1.4 2.4-1.2 2 0.3 2-0.3 2.9 0.7 2.5 0.2 1.2 0.9 1.5 2.4 2.7 0.1z" stroke-linecap="round" stroke-linejoin="round" stroke-width=".5"/>
	<path d="m971.5 380.2l2 1.4 1.3-0.5 2.1-0.2 3.5 2.4 1.8-1 1.7-0.4 4 1.2 0.3 2.6 1.9 1.6 2.3-1.5 3-1.3 3.8-0.1 3 0.9 2.7 1.9 3.9 1.5 0.5 2.8-0.6 2 2.4 2.3 0.6 1.4-1.4 2.3 0.1 2.2 4.6 2.1 0.6 0.5-0.5 2 1.6 0.6 2.1 2.6 1.7 1.5 5.5 2.2 0.8 0.9-0.4 3.1 5.9 0.4 3.6 1.4v1.2l0.8 1.2 3.2 1.5 0.7 1.9-2.9 1.2-0.3 1-3.3 2.1-3.9-0.1-2.7-1.6-3.2 0.2-1.5 3 4.4 3.6 0.7 1.1-0.2 1.7 1.2 1.6 0.6 3.7 1.8 1.5 1.5 2h-5.6l-1.5 0.9-1.9-0.4-1.2 0.6-2.4 2.6-0.9 1.4-1 3.7 2.1 4-0.9 1.6-3-0.9-0.6-1.3-2.3-1.2-7.9 0.8-2.5 0.9-0.7-0.5-2.9-3.3-4.2 1.9-0.6 1.2-1.1-0.3-0.9-1.4-5.7-1-2.1 0.8-2.1-0.5-1.3 1.9-0.9-1.5-1.2-0.4-3.3 0.2-1.1-0.3-2.1-2.3-2.6 0.1-6.8-0.8-7.3-1.5-8.7-0.2-2.7 0.2-2.6 0.6-6.6 0.7-0.9 1.6-1.7 1.8-2.1 1.4-1.2-0.5-2.1-0.3-1.2 0.6 0.1 1.6-1.2-1.8-0.1-1.4 0.9-1.7-0.5-1.2 0.2-2.7-0.9-1.1-2-1.1-3.7-1.4v-1.3l2.2-3.1 0.9-0.6 4.4-2 0.6-1.8-1.1-4.3-2-4-3.4-5.4-2.5-5.6 3.2 0.4 1.8-0.4 4.1-0.4 1.8 1 3.6-1.5 2 0.1 0.8-2.9 2.2 0.2 1.5-1.4 2.3-0.6 1.1-0.8 2 2.5 2.2-0.3v-1.1l-1-1.2-2.1-0.5 0.5-2.2 1.1-1.7-0.5-2.6 1.2-3.4 2.9-0.7 0.9-0.7 1.1-2.3h4l0.4-1.2 1.4-1.1-4.4-1 0.7-3.5v-2l2.9-0.7 1.3-1.7 1.2-0.4 3.4 0.4h3.5l0.4-1.9 2.7-2.7 1.5-0.9 1.4-0.4v0z" stroke-linecap="round" stroke-linejoin="round" stroke-width=".5"/>
	<path d="m740.2 527.7l0.9 1.2 2.9 1.4h1.3l1 0.8-1 3.4-0.5 1.7 0.2 1.9 1.3 0.1 3.7 0.8 0.5 1.1 1.7 0.9 2.6 0.4 2.2-2.2 0.9 0.3 0.6 1.7-0.5 3.5 0.6 2-2.1-0.2-1.1-1-1.4 0.4-0.6 2 1.8 3.9-1.3 0.4-1.6-2.1-0.8-0.1-3.2 1.3-2.2-0.8-0.9-2.3-2.2 0.2 0.1 3.2-0.5 1.2-2.4 3-0.2 1.1 0.8 1.9-1.3 0.8-1-1.5-1.5-1.3 0.4-1.3-2.5-0.6-2.7-2.2-0.3-2.8-1.1-0.6-3.7 3.3 0.7 1.7-1.7 2.5-3.1 1.2-3.5-0.8-2.9 1.2-2.6 0.6-1.6-0.7-1-1.5-2.6-2.5 0.5-1.9-0.9-2.4-2.5-0.3-2.1 0.2-2.5 1.7 0.6 1.4-2.5 1.8-1.6-0.1v-1.1l1.6-1.2 0.3-1.7-0.9-0.8 1.2-3.3 3.3-2.5 0.5-3.2 2.3-1.1 4.1-4.6 0.6-1-1.5-1.2 2-1.6h1.2l0.9 0.9 3-0.4 0.9-1.6 1.7-0.8 1.1 0.3h3.1l3.7-0.8 2.9 0.2-0.3-1.7 1.4-1.4h1.4l1.6 1.1 0.9-0.2 1.2 1 4.2-0.3v0z" stroke-linecap="round" stroke-linejoin="round" stroke-width=".5"/>
	<path d="m811.2 471.9l2.3-0.5-0.2-2.1 3.7 0.8 0.4 1.2 1.1 1.2 5.2 1.1 3 1.2 0.9 1 3.5-0.9 2 1.3-0.8 1.2-1.8 1.4 1.8 1 2.3 2 1.7 2.1 1.1 0.4 3.8-2.9-2-2.6h1.4l2.5 0.6 3.7 2 4-0.9v1.8l-1.5 0.6 3.1 2.5 1.1 0.6 2-1.2 3.9 1.9 0.6-0.2 3 0.8 0.6 2 3.2 2.4 0.6 1.8-3.1 0.4-2.2 1.7-0.6 0.9-2.5 1.4-0.7 3.4-1.8 0.9-2.3 2.2-1.7 0.8-1.9 0.3-4-0.5-1.5 1.4-1.2 3.1-1.2-1.8-5.7-1.5-1.3 1-4.2-0.1-3.4-1.8-1.7 0.1-5.4-1.8-1.6 0.5-1.8-0.9-1.3 0.3-0.3 3.6h-1.3l-1.4 1.8-0.1 1.2-2.8-0.4-1.5 0.8-4.4-0.3-0.9-1.4-2.5-1.3-0.7-0.8-3.3-2.4h-1.4l-1.5-1.8-2.8-1.6-3.3-2.8h-1.4l-2.6-2.2-2.1-3-1.6-1.6 1.3-1.9-0.7-1.8-2.6-1.4-2.9-3.7 0.5-0.8 2.2 2.2 2.1-2.9 1.2-0.7 2.9-0.7 2.4 0.4 0.9-1.5 2.2-0.4 0.6-1.1 1.8-0.8 1.2 0.1 0.6-1.4 4.9-1.2 3.9-1.8 2.1-0.7-1.7-1.6 0.9-0.7 2.5 0.4 1.7 1.6v1l1.6 0.6 1.2-0.6v0z" stroke-linecap="round" stroke-linejoin="round" stroke-width=".5"/>
	<path d="m797.8 421.7h-3.8l-0.3-1.9-1.3-1.1-0.1-1.1 5.3 2.8 0.2 1.3zm-39-8.2h-2l-1.6-0.7 0.9-1.1 1.9 0.4 0.8 1.4v0zm31.6-0.1l-1.4 0.8h-1.4l-1.4 1.5-2.4-1.2-0.6-1.2 0.1-2.5 0.6-1.6 2.2-1.1 1 1.3 1.9 0.6-0.5 1.9 1.9 1.5v0zm-52.2-6.2l2 0.7 1.8 1.7 0.1 1.6-1.9 1.8 3.6-0.4 0.9 1.3 1.9-0.5 5.1 1.9 3.5-1.1 0.8 1.5-0.6 1.7-2.4 1.8 1.6 1.3 2.3-0.3 4 0.9 3.6-2.9 1.2-0.6 4-0.4 5.6-5.1 5.9 0.9 1.7 2.1 4.2 2.2 3.6-0.3 1.5 2.2 1 2.8 2.2 1.4 3.1 0.5 0.8 2.9 2.1 4.5-0.3 3-2.1 2.1-0.7 1.8 1.8 1.5 3.7 2.3 1.6 1.9-0.6 2.9 2.3 2.5 0.9 2.1-0.7 2.9-0.9 1.2 2.2 3.4v1.8l2.5 0.9 1.9 3.5-0.4 2.6-1.7 4.1-1 0.8-1.6-0.6v-1l-1.7-1.6-2.5-0.4-0.9 0.7 1.7 1.6-2.1 0.7-3.9 1.8-4.9 1.2-0.6 1.4-1.2-0.1-1.8 0.8-0.6 1.1-2.2 0.4-0.9 1.5-2.4-0.4-2.9 0.7-1.2 0.7-2.1 2.9-2.2-2.2-0.5 0.8 2.9 3.7 2.6 1.4 0.7 1.8-1.3 1.9 1.6 1.6 2.1 3 2.6 2.2h1.4l3.3 2.8 2.8 1.6 1.5 1.8h1.4l3.3 2.4 0.7 0.8-0.2 3.1-1.4 1-2.6-0.9-0.7 3.2-1.1 1.1-3.2 1-3.4 2.1-0.6 1.5 2.9 3.1 0.1 1.4-0.6 1.5 1.9 0.3 0.4 2.1-0.3 1.7-1.9-0.4-1.4-1-0.3-1.2-1.2-0.5-2.8 0.6-1.7-0.9-2.2-0.3-0.1 1.6-6.3 0.7-4.3 1.8-1.2 1-4.2 0.7-1.6-2.1-3-0.4-3.1 0.2-0.2 2.1-1.1 1.8-1.8 0.6 0.1-1.5-1.3-0.3-1-1.5-3.9-1.7-0.8 0.6-2.5-1.3-5.4-2.4 1.2 1.8-4.1 0.3-1.2-1-0.9 0.2-1.6-1.1h-1.4l-1.4 1.4 0.3 1.7-2.9-0.2-3.7 0.8h-3.1l-1.1-0.3-1.3-1.4v-1.7l0.6-2.2-0.3-2.7 0.3-1.7 1.1-2 1.4-6.2 3.8-4.3-0.1-1.4-1.8-0.6-5.4-0.8-2.4-1.6-3.3 0.7-2.3-0.1-0.4-1-1.6-0.4-2 0.8-4-4.7-1.6-0.1 0.6-3.4 1-1v-1.6l-3.1-1.2-1.7-1.7-0.4-2.4 0.6-1.9 2.5-1.5-0.5-2.2-1.9-0.7 0.4-1.7-3.4-2.5 0.6-2.7-2.1-1.3 0.5-0.9 2.4-1.8-0.8-1.3 1.4-3.2v-1.3l-3.6-4.5 0.8-1.2 2-0.8 2.6 0.8 5-1.6 0.8-1.1-1.1-1 0.3-1 2.9-1.8 0.6-2.9-0.9-1.1-2.9-0.3-0.8-1.1 0.6-1.8h3.5l1.1-4.3 0.7-1.9-0.2-4.8-1.9-1.5 0.5-3 1.2-1.6 1-0.5 4.5-0.4h5l2.2 2.4-0.6 1.4 1.8 0.3 0.9-2.7 1.6 0.9 1.2-0.1-0.6-1.9 0.2-1.8 1-1.6 3.7 0.6 4-0.4 0.1-0.7-3.1-0.5-1-1.2-0.3-4.3-1.7-0.9-1.8 0.4v-1.7l3.8-1.3v-1.1l-3.9-4.1-0.3-1.8h3l5.8 1.3 3.4-0.9 1.2 0.4v0z" stroke-linecap="round" stroke-linejoin="round" stroke-width=".5"/>
	<path d="m759.1 405.6l2.4 1.1 2.7 0.3 0.5 2.1-3.9 0.9-5.7-2.2v-2.8l2.6-0.3 1.4 0.9v0zm15.2-1.6l-2.6 0.2-2.1 1.2-0.4-1.3 1.8-1.2 1.3 0.2 2 0.9zm-32.1 2.1l-1.3 0.3-1.9-0.5-0.7-2.5 3 1.2 0.9 1.5v0zm9 2l-1.6-1.6 2.7-3.3 0.8-0.2-1.9 5.1zm55.7-5.7l-2.7-0.2-2.7-1.1 0.1-2.2 0.5-1 5.1 2.5-0.3 2v0zm-58.2-8.4l2.7 4.7v3.1l-2 1.4-2.3 0.1-6.1-1.8-2-3.2-0.2-2.6 5.3-1.7 2.9 0.8 1.7-0.8zm25.9-0.3l-1.1 0.7-0.8-1 1-1 0.9 1.3v0zm-26.7-2.5h-1l-0.1-3.3 1.7 1.7-0.6 1.6zm25.2-0.6l0.1 1.7-0.8 0.8-2.2 0.8-1.2 2 2.3 1.3 0.6 1.7-1.1 0.8-2.9 0.8 0.1 6.2-2.4 0.7-1.7-2.3-0.1-1-1.5-3.4-2.2-0.4-2.4 0.2-1.7-2 0.1-2.3-1.2-2.2-1.5-0.6 0.4-1.6 3.5-0.3 1.6-2.2v-1l2-0.3 0.9 0.8 0.2 2.9 1.8 0.5 1.2-3.3-1-1.2 4.3-2.6 1.2-0.1 3.4 0.9-0.4 2.4 0.6 2.3v0zm-34.9 16.6l-1.7-0.4-3.4 0.9-5.8-1.3h-3l-0.6-2.3-0.9-1.5 1.2-0.4-1.1-4.3-3.6-1.4-2.8-1.5 0.4-6.3-1.2-2.5-0.1-7.7 1.4-0.1 3.5 0.8 1.7 1 0.6-2.1 1.7-1.8 2.2-0.9 1.8 1.4 0.2-5-1.8-0.5-1.4 0.5-1.4 2.2-1.1 2.7-2.1 0.3-1.7 0.8-2.7-1.5 0.1-1.6 1.7-2.2 2.2-2.2 2.5-0.1 1.8-0.7h4.3l3.1-1.5 3-4.1 1.6-1.7 3.7-0.6 3.3-2-0.8 2.8 1.4 1.9 0.1 3.3-1 1.1-1.5 2.8 0.4 6.2 2.8 1.6 4.6-0.1 1.1 1.2-0.7 2.5-2.9 1.6h-1l-1.6-1.2-1.2 1-1.2 5.7-2.2-0.1-1.3 0.6 1.6 1.3-1.4 0.9-3.7 3.5 1.3 3.8-0.2 1-1.6 1.5-0.6 1.2 2.6 0.3 1.4 3.2v0z" stroke-linecap="round" stroke-linejoin="round" stroke-width=".5"/>
	<path d="m893.7 341.6l4.4 0.1 4.5 1.9-2 0.8-4.1 2.9-0.3 0.6h-2.9l-1.6 0.3-1.1 1-0.9 3.1-1.8 0.6-0.4-1 1.7-2-1.7-1.5-2.1-0.7 1-2-1.8-1.7 1.7-0.3 1.1 0.5 2.2-0.6 0.5-1.1 3.6-0.9v0zm9.2 0.9l-1 0.2-2.7-1.2 1.1-1.1 2.1 0.5 0.5 1.6zm-6.1-4.3l-0.8 0.8-1-0.6-1 1.8-1.4 0.4-2.2-2.7-3.2-0.5-1.5-0.7 5-0.6 1.3-1.8 1.5 0.1 0.5 1 2.3 0.3 1 1.1-0.5 1.4v0zm59.8 19.7l-2.1-0.2-3.8-1-4.4 1.4-3.1-1.2-4-2.9-0.7-0.8-2.6-0.5-6.3-2.6-1.2 0.8-1.7-1.1-9.3 3.3 1-3.8v-4l-2.6-0.4-1 1.5-1.4 0.4-4.6-1.3-1.4-2.3-1.8-1.2-0.9-1.3v-2l-1.7-2.2 0.8-1.2-0.9-3.1 3.3-1.4 3.7-0.3 1-1.5 2.2-1.5 2.6 0.2 3.4-1.2h7l0.4-1.9 3.6-0.1 8.5 1.1h2l3.2 1.3 1.6 0.3 4.5-0.1 7 0.4 1.3-1.1 1.7 1.3-1.1 1.6-1.3 0.5-0.9 3.6-0.9 1.1-1.9-0.3-2.8 0.3-2.2 0.6-1.4 1.3 0.1 1.2 3 2.5 1.6 3.1 3 2.4 0.9 1.4 2.7 3.2 2.1 2.7-2.5 0.7-1.3 2.3-0.4 2v0z" stroke-linecap="round" stroke-linejoin="round" stroke-width=".5"/>
	<path d="m599.7 479.6l-1.8 1.5-1.4 0.3-2.8-1.3v-0.6l2.8-1.3 2.2 0.6 1 0.8zm-41.7-43.4l1.5 1-3.7 2.2-1.4-0.6-1-1.3-0.2-2.1 1.3-0.6h2l1.5 1.4v0zm-26.2-12.1l-2.3 0.5-3.2 0.1 0.1-1.7-1.6-0.5-2.1-3-1.5-0.5-2.1 1.8 0.6 1-2.6 2.1-3.2-0.3-0.9-0.8-2.4-0.4-0.2-1.1-3.1-2.2 1.1-1.6 3.2-1.1-1.1-1.5 0.2-0.9 1.8 0.1 2.4-0.9 1.3-1.8 1.1-2.6 2.1-1.1 1.5 0.6 2.1-2.3 3.1-0.2 3-0.8 4.4 0.2 1.3 1.2 0.6 1.9 1.5 1.9 1.9 1.5v1l-2.2 1.3 3.9 0.2 1.4 2.8-2.3 0.4-0.1 1.6 1.2 0.2-0.6 1.6-2.9 0.7-1.5 2.5-1.1 0.6-2.8-0.5v0zm14.7-22.8l-2.9-0.5-0.7-2.2 1-1.6 2 0.7 0.7 1.4-0.1 2.2v0zm-13-7.7l0.9 3.8-2.6 1.5-1-2.7-1.5 1.1 0.2-2.1 1.7-0.4 2.3-1.2v0zm2 1.9l-1.3-1.3 1.7-2.5 1.9-1.2-0.1 1.8-2.2 3.2v0zm2.6-8.8l-5.1 1 0.6-3.4-2.1-1 0.3-1 2.3-0.6 1.9 1.9 2.4 0.6-0.3 2.5v0zm-18.4-12.3l-1.7-0.2-0.5-1.6 0.2-2.6 1.8 0.2 0.2 4.2v0zm14.1-6.6v3.1l3.3 0.8 2.2-0.2 0.5 0.7-3.6 3.1-0.8-0.1-0.3-2.4-1.6 0.4-2.1-0.3-1.4-2.1-3-0.5-1-1.2 1.5-0.7 0.3-1.3 3.1-0.7 1.7-0.8 1 1.1 0.2 1.1v0zm-13.3-2.6l1.4 1-1.2 1.5h-1.7l-2.5-1.1 0.2-0.6 3.8-0.8v0zm12.9-11.4l-1.7 2.9-1.1 0.8-0.2 1.9-3.3 1.9-3.5 2.8-1.6-1.1 2.9-2-2.4-1.1-0.3-2.9 0.9-0.8 1.6 0.7 2.1-0.4-0.8-1.3 6.9-3.7 0.5 2.3v0zm38.7-3.3v1.3l-1.4 1.8-2.4 1.4-4.6 3.2-2.8 1.5-0.5 1.8 1.6 0.1 0.2 0.9-2.4 1.8-0.6 1.7 3.3-0.5 5.9-1.8 4 0.5 2.9-0.4h7.7l2.1-0.4 2.6 1.4 1.2 1.9-3 3.9-0.8 2.6-2.1 4-2.1 2.3-2.2 2.8-2.3 1.3-3.4 0.6 5.1 2-1.5 2-2.7 0.2-2.5 2-2.3 0.8 4 1.1 2.6-1.2 3-0.2 5.8 2 4.1 3.7 2.3 1.6 0.6 1.2 2.5 7.6 1.8 4.2 1.8 2 5.1 1.7 1.2 0.6 3.9 3.6 3.8 2.6-1.5 1.7 0.5 1.3 2.4 3.2 0.4 1.8-1.5-0.1-2.6-1.5-0.3 0.8 5.7 3.6 1.8 2.2 1.2 3-0.6 1.2-3.3 3.1 3.2 1.5 1.3-0.3 2.2-2.4 1.9-0.3 4.7 0.2 4.3 1 3.7 2.3 0.8 1.2 0.5 3.4-2.3 6.5-3.1 2.2-0.5 1.9-2.3 1.1-1.9-0.3-2.6 1.4 1.9 0.6v1.9l-1.2 0.7-2.8 0.3 1.3 2.2 2.8 0.4 4.8-0.3 2.1 0.2-0.2 3-0.4 0.5-4.2 2-1.1 2-2.5-0.1-1.2 0.8-6.3 2.3-5.5-0.8-3.2 0.2-4.4 0.8-4.7-1.2-2-0.2-3.1 2-4.7 0.7-2.2-0.2 1 1.6-1 0.5-4.2-0.5-1.1 0.6-1.6-0.2-3-1.5h-2.9l-5.4 1.5-1.1 1.5-1.4 3.9-1.2 1.4-1.6 0.3-5.1-2.7-1.7 0.6-2.8 0.4-3 0.8-4.3 2.8-1 1.7-1.4 0.3-1.2-1-1.6-0.3-2.5 0.9-0.4-1.4 1.1-1.1 3.1-0.9 2.7-2.2 2.4-2.6 5-4.4 0.8-3.5 3-0.8 1.5-2.8 4.6-0.8 3.1-0.1 3.1 0.5 3.2-0.2 1.2-0.8 2.1-2.7 3.9-3.4-5.2 1.2-4.2 2.7-3.6-0.4-2.6-2.1-2.4-0.8-2.3 0.5-0.8-1-2.7-1.8-2.9 0.1-4 2-2.9-1.3-1.1-2.5 0.3-1.6 1.2-0.8 2.8-0.7 4.2-2 2.4-0.8 3.1-2.2 1.3-2.6-0.4-2.2 0.5-1.6-1-1.9 0.3-1.7-3.3 0.4-3 1.4-0.8-1.2 3.1-2.1 1.1-1.6 2.9-2 4-1.5 2.1 0.1 4.1-0.9 3 1.4-0.9-2.3 1.3-0.5 0.1-2.7 1.7-2.5-1.4-0.6 0.1-2.2 1.7-0.9 0.7-2.9-1.9-0.5-2.3 0.7-1.9-1.6-3.2-3.9-0.4-1.6 1.7-3.5 2.5-2.3-2.1-0.8-1.6 0.3-3 1.4-2.2 1.5-2.3 0.1-0.9-1-1.2 0.1-2.8 1.3-3.9-1.4-1.2 2.6-3-2.7-0.4-2.1h1.4l1.3-2.7 3.1-4.5 0.6-1.4-0.6-1.5-2.2-1.6 0.3-2.9 0.9-1.1 1.7-0.5-2.1-1.3-3.2 1.1-2 1 0.3-2.2-0.7-0.4-1.6 1.6 0.2 3.7-2.2 6.4-1.2 1-1.6-0.5 1.1-4.4 1.5-2.8-0.7-0.3 0.2-4 1-3.3 1.8-4.3 2.4-4-4.5 3.1-1.1 0.6-2.7-0.4-0.9-0.8-1.2-2.5 2-0.3 1.9-1.3-1.7-0.7 1.6-1 1.8-2.4 0.4-2.1-1.2-1.6-1.8-0.6-0.2-1 1.8-2.2-0.8-1.7 1.7-3.5h3.3l2.1-0.5-2.6-2.2 0.7-3.2 4.1-0.4-0.9-2 0.3-2.2 1.8-1 1.5 0.2 1.1 1 2.9-1.1 0.7 0.9 3.1-0.7 4.1-0.4 5-0.8 2.4-0.5 2.6 0.2-0.5 1.4v0zm-0.7-4.4l-1.4 0.1-1.5-1.5 1.7-0.4 1.2 1.8v0zm1.3-3.9l3 0.6-0.6 1.6-1.6-0.7-2.2 0.4-2.1-1.1 0.4-2.4 1.9-0.2 1.4 0.5-0.2 1.3v0zm4.1-2.6l-1.1 0.4-0.5-1.3-1.9-0.6 0.4-0.9 3.1 2.4v0zm17.5-22.2l1.8 2 1.1 0.5-1.4 4.3-0.2 1.8-1.1 1.9-0.9-0.4 0.9-3.3-0.6-1.2-1.9 0.4-0.5-1 1.7-1.6-0.9-2.2-1.2-0.2 1.6-1.8 1.6 0.8v0zm3.2 0.4l-1.6-1.4 1.4-0.7 0.2 2.1z" stroke-linecap="round" stroke-linejoin="round" stroke-width=".5"/>
	<path d="m1254 626.1l-2.6 0.6 0.6 0.8-3.9 0.2-1.2 0.3-3.6-0.3-5.9 1.6-4.9 0.4-1.5-1.3-2.1-0.2-1.3-1.9-4-2.7-1.3-0.4-0.7-1.2-1.6-0.3-1.6 0.5-1 2.1-3.8-0.8h-4l-1.2 1.1-4.8-1.3 2-3.4 0.4-1.9-0.5-2.7-2-3-4.3-8.8-1.3-1.3-4.5-1.5-1.3-1.8-3.6-2.3-4.6-0.9-5.4-3.1-3.3-1.8 1-2.4 0.9-0.2 5.4 0.9 1.7-0.5 6.6 2.6 4 0.7 3.5 1.8 6.7 0.4 3.1-0.7h2l2.3 1.2 2.7-0.3 3.6 1.3 1.7 1.7 3.9 1.5 3.1 0.8 3.6 1.6 0.3 2.7 2.8 0.4 4.7-2.4 2.3-0.8 2 0.2 2.2 2.1 0.8-2.5 5.2 1.8 2.4 2 3.1-0.2 2.5 1.1-0.1 4.7 3.3 1.5 1.8 1.3 3.8 0.7 3.5 1.6-1.3 2.4-1.3 0.4v1.4l1.2 0.9 1 1.6 5.1 2.8 1 0.9-0.2 2.2-2 1.6-4.6-2.1-1.9 0.6-3.6-0.9-1.6-1.1 0.1-0.8-4.5-1.5-2.1-0.4-2.9 2.7v0z" stroke-linecap="round" stroke-linejoin="round" stroke-width=".5"/>
	<path d="m953.6 721.7l-1.6 0.3-0.8-2.4 0.5-1.1 2.4 2.3-0.5 0.9v0zm70 3l-1.9-0.4 0.4-2-0.8-1.8 2.5-3.1 3.5-1.5 1 1-0.9 2.8-1 1.5 0.5 1.1-1.8 0.3-1.5 2.1v0zm-21.4-11l-1.6 1.4-1-0.6 2.1-1.4 0.5 0.6zm6.9-2.6v-0.8l1.4-1.3 2.8-1.2 1.4 0.6-2.8 1.6-1.7 0.1-1.1 1zm-24.9-5.4l-1 1.5-1.5-0.7 0.4-1.3 1.2-0.7 0.9 1.2zm4 1.6l-1.2 0.7-1.6-2.4 2.1-2.3 1 0.8 0.2 2-0.5 1.2v0zm5.8-9.9l0.6-1.8 1.8-0.2v1.2l-2.4 0.8v0zm-24.2-0.2l-1.1-0.4 0.4-1.3 1.2 0.5-0.5 1.2v0zm35.2-5l3.1 0.7-0.8 1.1-1.8 1-1.9-1-1.4-1.3 2.8-0.5zm-85.5 2.1l0.5 1.3-1.2 1.1-1.8-1.3-1.4-2 1-1.2 1 1.3 1.9 0.8v0zm59.2-0.6l-1.6-0.1-2.7-2.3 1-1.6 1 1.3 1.5 0.1 0.8 2.6zm-64.1-9.3l0.4 2 1 0.3 1.5 1.8-0.2 1.3-2.4-0.8-1.1 0.2-1.3-2.2-1.4 0.3 0.6-2 1.6 0.1 1.3-1v0zm78.9 1l-1.2 1-2-1.8 1.5-1.5-2.4-2.6-0.1-1.1 2.3-0.6 1.5 1 0.7 1.3 0.5 2.9-0.8 1.4v0zm-78.4-5.1l-1.4 0.1-0.5-1 0.8-2.7 1.2 0.3 0.3 2.8-0.4 0.5v0zm38.5-6.9l1 1.9 6.2 2.6 3.1 0.3 2 2.9-0.2 0.7 1.8 4.2 1.2 1 3 0.3 0.5 2.1-1 0.9-2.1-0.7-2.4-1.7-0.5-1.4-2.5-3.2-4-0.1-1.7-0.7-0.7-1.9-1.7-1-2.3-2.1-1.7-1.2-3.4-1.2-0.7-0.8 2.1-1.5 2.3-0.6 1.7 1.2v0zm42.1-7.4l-0.1 1 2.2 1.6 0.8 1.1-1.3 2.4-4.5-0.8-0.9-0.9 1.8-1.5-1-0.5-1.3 1.7-2.5-0.7-1-1 0.7-1.6 1.7 0.1 1.9-0.9v-0.7l2.6-0.3 0.9 1zm-90.7 0.3l-1.4 0.4-1.4-0.9-1.4-2.1-2.5-2.4 0.8-1.2 1.8-0.5 1.6 1.3-1.2 1.4 0.9 0.8 1.1 2.7 1.7 0.5zm75.4-11.3l-0.7 1.6-0.1 1.5-4.3-0.7-0.4-2.6 2.4-0.2 0.9 0.9 1.1-1 1.1 0.5v0zm2.5-7.8l-1.6 0.5-1.9-1.4 1.5-0.6 2 1.5v0zm-13.4-3l-1.8 0.7-2-1.2 1.2-2.6 1.5 0.1 1.1 1.4v1.6zm17.7-2.3l-0.6-0.8-2.4-1.3-5.1-0.6-2.6-0.9-1 0.2-2.3-1.1-1.3 0.5-2.7 2-1.7-0.2-1.8-1.1-2.4 0.5-1.8 2.2-2 1.2-2-0.4-2.6 0.1-0.2 1.2 2.3 2.3-0.5 1.1 0.6 1.1 2.3 0.1 2.8 1.4-0.8 0.8-3.6-1.3-1.3-0.1-1.3 1.4 4 2.9 0.6 1.5-0.6 1-1.7-0.9-2.9-3.5-3.5-0.6-0.4 0.7 1.4 2.6 3.3 1.8-0.7 0.7-3.4-1-1.3-1.8-0.5-2.2-6.2-3-1.6-3.1-2.4 1.5 0.5 2.2-0.6 4.3 0.5 1.4 4 4 1.5 3 3 2.3 3 3.5 0.8 2-1.4 1.3-1.5-0.5 0.3-2.1-2.5-1.3-2.1 1.4 1.7 2.5 0.6 1.3-0.4 1.5-1.8 0.9-2.9 0.2 2.7 1.5 3.7 1 1.8 1.2 1.7 0.1 1.9 2.3 2.9 0.6 1.9 2.3 2.2 0.5 1.9 0.8 1.2 2.3 0.4 3.2 0.7 2.3 0.2 1.9-1.2 0.6-1.5-1.8-4.8-3.9-1.1-0.4-1.1 0.8-3.2 0.6-2.1 1.5 1.7 1.4 0.1 1.3 0.9 1.7 2.2 0.4 2.3 2.6-3.3 1.2-1.2 0.8-0.9-0.5-0.3-1.3-4.8-2.3-0.7 0.7 0.8 2.7 1.5 1.8 2.6 4.7 1.5 4.1-0.2 2.3 1.2 1.6 0.1 1.7-1.9-1.3-2.5-2.7-0.9-1.7-2.4 0.2-1.4 3.7 0.3 2.1-1.8-1.2-0.1-3.1-2.4-3.1-1-0.4-1.5-2.1-1.7 0.7v3.2l-0.4 1.1-2.5-2.1-2.7-3.8-0.3-2 1.5-1.9-0.4-1.3-1.8-2.7-2.4-1.6-1.4-0.5-0.8-1.8-2.3-1.4v-1.1l2.2-1.9 1-2.9 2.1 0.5 1.6-0.3 2.2-2.7 1.8 0.1 4.4 2.2 4.7 1.2 2.4 1.1 1.4 1.2 1.8 0.3-0.6-1.5 0.9-0.5 2.3-0.1 0.2-1.8-2.2-0.6-0.9 0.2-2.7-1.5-2.6-0.8-2.5-1.6-1.3 1.5h-1.3l-3.8-0.9-2.3 0.8-4.7 0.9-1.3-1.4-2.9 1.2-1.1-0.8-2.2-4.6-1.9-2.1-1.4-0.5-0.3-2.1 1.7-0.3 2.7 0.9 1-0.7-0.7-1.8-2.8-0.2-2 0.6-3.2-2.4-1.7-1.9-2.5-1.2-2-3.7-3-2.8 3 0.9 0.8-0.8 0.3-1.7 1-0.8-1.2-2.4 1.9-1.5 2.1-0.4 0.7-0.6 0.3-2.2 1.3-3.5 1.9-0.9 0.8-2.9-1.3-2v-1.2l5.1-0.5 1-0.7 2.6 0.6 2.6-1.5 1.8-2.8 0.9-0.4 3.3-0.5 3.7 0.6 3.2-1.2 0.2-2.3 2.2-0.4 3.3 0.1 1.1-1.1 2.7-0.3 2.9 0.2 3.3-1.3 2.1-0.3 0.2-1h4.7l1.8-0.6 1.4 1.9 2.7 1.5 1-0.7 4.2 1.2 1.9 1.2 3.8-1.1 3.6-0.5 2 0.3 2.8-1.4 0.2-0.9-1.1-3-0.8-1.1 1.8-1.3 1.8 0.5 1.3 0.3 2.6 1.6 1.1 3.4-3.7 2.9 0.7 4.9-2.7 3.6-1.1 0.7v0z" stroke-linecap="round" stroke-linejoin="round" stroke-width=".5"/>
	<path d="m850.2 605.6l2.6 0.4-1.2 1-1.4-1.4v0zm14.4 1.4l1.8-0.2 0.7 1 7 4.1 1.9 0.7 1.4 2.1-5.4-3.3-5-2.7-3.5-0.7-4.8-2.1-0.6-1 6.5 2.1v0zm-7.1-3.8l-0.9 0.1h-6.2l-1.9-0.3-0.6-1.4 2 0.2 0.6 0.7 7 0.7zm-5.9-2.4l-2.2 0.2-2.9-0.8 0.3-1.2 5.4 0.5-0.6 1.3zm-24.1-17.9l-0.3 0.5-3.7-2.9-0.4-2.1 3.2 2.9 1.2 1.6zm-5.6-7.1l-2.1-0.2 0.9-1.2 1.2 1.4v0zm-4.7 1.8l-1-0.1-2-4.6 0.4-1.3-0.9-2.2 1-0.4 0.6 2.3 1.1 1-0.1 1.8 0.9 3.5v0zm4.1-5.6l-1.7 0.4-1.1-1.1-1.5-0.2-1.1-1.1 1.1-0.8 0.5-1.4 3.8 4.2v0zm54.8-17.6l-0.7 1.7 1.9 3 0.3 1.8 1.5 0.4-0.4 2.2 1.4 1.1 3.4 1 1 1.6-2.6 0.2-1.9 0.5 0.8 2.9-1.1 1.8-2.5-0.2-1.5-2.4-1.2-0.9-2.5-0.2-2.9-0.7-2 0.3-2-0.3-2.4 1.2-1.8-1.4-1.9 0.7-3.1-0.7h-2.8l-3-1.7-1.6 1.4-3.6-0.3-2.9 3.6-2-1.1-1.9-2-2-0.4-1.3 0.7-0.2 5.6 0.1 1.6 2.2 1.4 3.9 3.5 1.5 4.4 2.6 2.6 3.2 2.5 1.9 2.2 5.7 4.4 2.7 1.2 0.5 2.4 1.7 1.7 3.4 2.7-0.3 1.8-4-3-2.9-1.6-3.5-3-4.3-1.1-3-1.3-4 0.8-2-0.2-0.8-2.4-6.6-4.2-4.9-4.4-0.9-1.4 3.4-1.4-1.6-0.9-4.4-3.7-1.4-1.8-0.2-4.6-0.9-1.9-3.3-2.4-1.3-1.2-2.4-0.7-1.5 1-0.3 2.1-3.2 5.6h-1.4l-3.6-4.6-0.6-2.1-1.5-4.3 0.8-0.6 0.6 0.7 3.7 0.8 1.5-1.5 1.2 0.5 4-0.2 0.7-0.3 1.3-2.5 3 2.3 1.7 0.7 1.4-0.6 2.2 0.7 1.8 0.2 1.3-0.5-0.9-2.5 0.8-0.8-1.1-1.2 2.3-1.2 2.3-0.7 0.4-1.2-0.3-2.4-1-1 0.4-1.6 4.9-2 0.8-1.1 2.2-0.1v-1.9l1-0.9 2.8 0.6 3.3 1.3 1.9 1.3 1 1.4 3.1 1.9 2.5 2.4 1.5 0.7 2.8 0.6 1.5 1.4 3.7 0.9 5.5 0.1 2.8-1.1 1.2-1.6 2.9-0.1v0z" stroke-linecap="round" stroke-linejoin="round" stroke-width=".5"/>
	<path d="m914.8 511.2h1.7l1.6 2.5 2.5 0.8 1 1.2 2.6 0.4 1 0.8 0.8 1.9-2.4 2.6-5.1 1.3-2.1 2.7-1.3 1.1 0.2 1.9-1.5 1.6-0.7 2.8-1.5 1.7v1.3l-1.7 3 0.3 1.4-2.3 1.7-1.6 5.3-1.4 1-2.9-0.3-2.7 2.3-1.6-0.5-3.7 1.3-1.1-0.5-3.1-0.3-1.2 0.3-3.2-0.4-1.1 0.4-1.6 1.8-2.4 1.2-1.8-0.5-2.3 1.5-3.2 0.5-1.2 1.6-2.8 1.1-5.5-0.1-3.7-0.9-1.5-1.4-2.8-0.6-1.5-0.7-2.5-2.4-3.1-1.9-1-1.4-1.9-1.3-3.3-1.3-2.2-2.4-1.6-3.6-2.7-0.1 2-1.9 2.8-0.6 0.3-2-1.3-1.8 0.5-0.8-0.5-1.7 2.4-1.4 0.5-1.6-0.6-1.2-2.9-0.7 1.4-1.6 2.8 0.9 4.3-0.4-0.8-2.2 0.6-2.1 0.7-0.8 2.3 0.3 4.7 2.9 1.8 0.7h5.2l7.8-0.6 0.6-1.1-0.6-1.4 0.4-1.1 1.5-0.8 4.8-0.6 2.7-0.7 1.1-1.7 0.8-0.2 3.9 1.5 5.5-2.9 1.7-3.9 2-0.5h3l2.8 0.6 5.1-0.9 1.6 1 2.5 2.4 0.7 0.2 5-1.7v0z" stroke-linecap="round" stroke-linejoin="round" stroke-width=".5"/>
	<path d="m531.8 424.1l0.8 1.2-2.4 0.5 1.8 5.8 0.7 1 0.1 4.6 1.1 3.5 0.2 2.8-1.4 2-1 2.4-0.2 2-1.7 2.4-1.6 1 1.8 1.6-3.1 1-2.9-0.3-1.4 0.9-4.3 0.3-4.1 0.9-1.8 2-2.8 0.8-1.1 1.1-2.5 0.9-1.9-1.3-1.1 0.2 0.3 2.3-3.2 1.5-2 0.4-1.1 0.8-6.4 1.7-2.1-0.5-3.7 1-1.3-0.1 1.7-2 1.8-1.5-4.2 0.8-1.5 0.6-0.7-0.7 3.5-2.2-4.1 0.5-3.4-0.4-0.5-1.1 3.2-2.6 2.7-1.1-0.1-1-5.7 0.2 0.5-1.2 1.9-1.2 2-0.2 1.7 0.6 1.2-0.9-0.7-1.9 4.3-2.7 3.3-0.4 3.7-0.9 3.7-1-2.7-1.3-2.5 2.1-2.9 0.4-2.1-0.5-2.3 0.1 3-2.3 1.7-1.9-0.9-0.8 2.2-2.6 4-1.2-1.8-1.4-4.3 0.3-1.6-1.4-2.9 0.2 0.4-1.3-3.9-0.1 0.5-1.1-0.7-1.2 3.1-0.7-0.3-2.2 2.1-0.9 2.2-0.5 0.1-1.2-2.2-0.2-2.2 0.5 0.8-2.4-0.9-1.1-0.5-1.9-1-1.1 3.1-0.3 1.3-0.6h5.2l2.2 1.4 1.9-1.4 5.4 0.9 0.6-2.9 4.2-1.8 1.3-2.3-4.1 0.5-4-1 0.8-0.9 2.3-0.8 2.1-1.8-0.4-1.2 1.8-3.1 3.4-1 2.7-0.1 1.8-1 1.4 2.2-1.1 1.1 0.7 1 1.3-0.9-0.6-2.3 1-1.5 2.1-0.4 0.6-0.9 3.6 1.8-2.7 1.7-0.5 0.8-2.1 1.1-1.1 2.6-1.3 1.8-2.4 0.9-1.8-0.1-0.2 0.9 1.1 1.5-3.2 1.1-1.1 1.6 3.1 2.2 0.2 1.1 2.4 0.4 0.9 0.8 3.2 0.3 2.6-2.1-0.6-1 2.1-1.8 1.5 0.5 2.1 3 1.6 0.5-0.1 1.7 3.2-0.1 2.1-0.5v0z" stroke-linecap="round" stroke-linejoin="round" stroke-width=".5"/>
	<path d="m428.2 232.3l1.3 0.1 3.1-1 2.4-1.3 0.6 1.2-2.7 2.7 2.5 0.9 2.2 0.3-0.1 1.9-1.9 1.8 0.9 0.3 3.9-0.6 1.2 2.5 1.7-0.3 2.7 0.3 1.6 1.3 1.3-0.4 0.6 1-0.8 1.4-1.7 0.7 2.4 3.2v1.2l-1.1 0.8h-1.4l-1.1 2.4-1.3 1.3-2.2 1.2-2.9-0.5-1.2 1.7 0.3 1.6-1.4 1.5-5.9 2.5-2.8 0.1-2.9 0.6-6.9 2.4-5.2 3.2-2.2 0.8-3.4 0.4-2 0.6-6.6 1-2.2 0.6-1.3 1.3-0.5 1.6-4.4 1.3-4.2 0.9-7.1-0.4-6.1-1.3-5-0.2-4.3-2.7-3.3-1-4.1-1.9-2.5 1.3-13.8 0.6-0.9-0.5-0.3-2.3 1.2-0.9 1.5 1.3 5.5-1.4 3-2.2 2.7-3.1-3.9 1.4-0.3-2.1-1-1.2-1.9-0.8-0.4-0.9 1.2-1-2.6-1.3-2.9 0.2-7.4-0.4-4.2 1.2-2.2 0.2-1-1.1v-1.2l1.7-0.4 2 0.1 4.6-0.8 1.5-0.7 0.9 0.5 4-1.3 1.1 0.2 4.5-0.3 4.9-0.2 1.2-0.9 0.4-1.2-3.1 1.1-4.1-0.5-0.7-1 4-1.9 3-1-0.9-1.4-3.6 0.3-0.8-0.9-2.9-0.4-2 0.4-1-0.5-2.7 0.7-5.8 1.1-3.7 1.1-3.5-1.1-2.7-0.2 1.5-1.6 2.2-0.2 1.9 0.8v-3.6l1.3 0.3 3.1 1.2-0.9-3.1 2.5 0.1-2.5-1.7 0.5-1.1 1.8-0.4 0.9-1.1 2.7-0.1 2.6 1.2 0.3 1.6 2.3-0.1 1.2-0.9 1 0.6 0.6 1.3h1.3l0.4-2.5-4-1.1-0.4-1.6 4.1-0.2-1.9-1.2-3.3 0.3-1.6-0.4 2.9-1.4 3.8-0.1 1.6 0.2 2.6 1.8 2.2 0.6 3.5 2.5 2.5 0.9v1.3l0.8 0.9-2.5 3.8 1 0.8-0.9 1.8 2.1 0.6 1.2 1.9 1-2 1.6-2.2 2.5-1.5 1 0.1 1 1.1 1 0.1 1.5-2.3 0.7-4.8 1.9-1 2 0.7 1.5 1.8 3 2.3 2-0.6 0.1-2.6 1.1-1.5 2.2-0.4 2.4-0.9 2.6-0.3 1.9 1.5 1.4 1.5 1.9 1.2 0.8 2 1-0.4-0.3-1.9-1.6-2.9 0.3-1 4.6 0.1 3.4 2.5 1.4-0.4 3.9-3.2 2.6 0.8 2 0.1 3.1-1 0.9-1.4-1.1-2.5 0.7-0.5 2.9-0.7h3l3 2.3-0.1 1.1 2.2 1.1v0z" stroke-linecap="round" stroke-linejoin="round" stroke-width=".5"/>
	<path d="m842.5 688.8l-1.3 2.8-3 4.9-1.5 5.7 0.4 2.2 1.8 1.5-0.8 0.6 1.8 2 0.1 1.4-2 2.2-0.4 1.9 0.1 1.7-3.2-0.6-1.6 0.4-4.2-1.5-2.2-3.1-3.4-2.2-3.3 0.1-1.6-0.5-3.3-2-3.4-1.5-3-2.3-1.9-0.4-1.7-1.1-3.2 0.1-2.6-1.7-1.5-2.5 1.4-4.2 1.5-0.9 1-1.4 2.6 2.5 2-0.9 1.5-1.8 2.7 0.1 0.6 1 1.6 0.3 2.8 1.7 1.6 0.4 3.8-1.2 3.4 0.4 3.1-0.6 1.9-0.7 1.3-1.1 1.6-0.4 3.9 0.2 2.2-1.4 0.9 0.2 2.2-1.4 1.3 1.1v0zm-88.3-44.3l0.8 1 2.1 5.5-0.6 1.8-1.4 2.3 1 3.1-0.4 12.8-0.6 3.2-1 0.5-3.3-1.3-1.7 0.4-1.4-0.6-0.3 3.4-2 2.4-3.3-0.1-0.8-0.7-2.8-4.2-0.6-4.8 0.6-1.5-0.1-2.8 1.2-0.1v-1.9l-2-1.3v-2.1l0.7-1.6-0.2-2.9-0.9-1-0.9-2.5-2.5-2.6v-3.8l3.8 0.6 1.4-0.4 3.4-1.7 2.3-2.8 1.5-0.6 1.6-2 0.8 1 2.5 0.8 1.4 1.6 1 0.5-0.7 1.6 1.4 0.8v0zm8.5-34.6l0.4 1.6-2.8 0.6-1.3-1.2 3.2-0.3 0.5-0.7v0zm40.8-64l-0.2 1-3.6 2.6 0.8 1.5 2.6 0.7-1.7 2.4 0.4 1.1 1.5 0.2-0.4 2.2 2.1 1.2 1.7 1.4 0.3 1.4-1.7 0.1 0.8-0.7-2.3-2.4-2.2 1.1-3.6-0.9-2.3 2.3-1.7 0.5-1.9 1.3-3.5 1.4-2-0.4-1.1 0.8-0.4 3.5 0.9 0.6 1.7 2.9 1.9 1.2-0.7 2.1-1 0.8-1.5-0.5-0.3 1.9 1.1 5 1.6 3.5 1.4 1.4 3.1 2.4 3 1.2 5.8 4 3.1 1.2 0.8 0.8 2.1 3.1 1.9 3.5 2.1 5.6 1.5 2.8 2.6 3.2 5.5 4.4 4.9 3.1 4.5 2 3.4 0.3 7.8-0.6 2.9 0.7 0.5 1.3-0.4 1-3.2 2.4v1.9l1.7 1.3 8 3.4 8.1 2.7 2.5 1.5 3.1 2.3 7.2 3.1 1.3 1.5 4.5 3.2 2.1 2.6 0.6 2-1.6 4.9-1.8-0.5-2.2-1.4-3.6-5.9-5.6-0.4-3.3-1.4-0.8-1.5-2.6-0.4-1.4 1-1.5 2.3-1.6 3.4-1.6 4.8v1.9l1.3 1.9 3.3 1 2.7 1.6 1.8 1.7 0.4 4.2 1.1 2.3-1 1.5-2.1-0.3-2.8 0.8-1.9 1.6-0.7 1.6 0.6 3.8-0.3 1.6-3.6 2.9-1.7 2.8-1.1 2.6-4.8 0.1-1.3-1.6-0.2-2.4 0.6-1.5 1.8-0.8 0.9-3.1-0.6-2.2 1.2-1.8 3.1-0.9-0.1-3.2-1.6-1.4-1.7-5.6-2.8-4.7-1.7-4.2-1.3-2-1.6-1.1-4.1-0.2-5.2-2.8-0.4-1.2 0.6-1.2-1.3-3.1-2.3-1.8-2.9 0.7-1.3-0.1-0.1-1.7-2.3-1.4-3-0.2-0.8-0.8-3-4.4-1.9-1.9-2.6 0.2-4.4-0.9-2.2 0.8-3.6-2.8-3.1-0.9-6.5-5.8-2.1-2.2-4-2.4-2.6-3.5-2-1.3-4.5-1.5-0.4-1.4-3.5-3.4-1.9-1.1-1.5-2.3-2.8-0.5v-3l-1.4-3.9-2-2.4-1.5-5.9-0.9-1.7-2-1.2-4.5-1.2-6.4-3.6-1.2-0.1-3.8-1.4-2.3-0.2-2.9 1.4-3.4 3.6-2.7 3.9-1 0.7-3.8 1.4-3.3 0.6-0.3-1.7 2.3-3-0.4-2.2-3.7 0.8-5.7-2.5-1-1-0.1-1.6-0.8-1.4 1.5-2.8 0.9-0.8-0.6-1.9-3.6-1.5-1.7-3.4 0.9-0.5 2.1 0.2 1.9-1.5 1.3-0.4 0.8-2.8-2-1.7-2-2.9-1-0.6-0.2-1.8 2.9-2 1.6 0.7 2.7-0.6 2.9-1.2 3.5 0.8 2.6-1.6 1.7-2.5-0.7-1.7 3.7-3.3 1.1 0.6 0.3 2.8 2.7 2.2 2.5 0.6-0.4 1.3 1.5 1.3 1 1.5 1.3-0.8-0.8-1.9 0.2-1.1 2.4-3 0.5-1.2-0.1-3.2 2.2-0.2 0.9 2.3 2.2 0.8 3.2-1.3 0.8 0.1 1.6 2.1 1.3-0.4-1.8-3.9 0.6-2 1.4-0.4 1.1 1 2.1 0.2-0.6-2 0.5-3.5 3.4 0.3 1 0.9 2.4 0.4 1.2-0.5 1.3-2.5 1.5-0.7 3.8-0.4 3.5 0.1 5.2-1.8 0.1 2.6 3.5 3.8 1.2 0.5 9.6 1.5 4.5 0.2 3.4 1.1v0z" stroke-linecap="round" stroke-linejoin="round" stroke-width=".5"/>
	<path d="m746.3 538.1l-1.3-0.1-0.2-1.9 0.5-1.7 1.3 2.8-0.3 0.9v0z" stroke-linecap="round" stroke-linejoin="round" stroke-width=".5"/>
	<path d="m953.2 388.4v2l-0.7 3.5 4.4 1-1.4 1.1-0.4 1.2h-4l-1.1 2.3-0.9 0.7-2.9 0.7-1.2 3.4 0.5 2.6-1.1 1.7-0.5 2.2 2.1 0.5 1 1.2v1.1l-2.2 0.3-2-2.5-1.1 0.8-2.3 0.6-1.5 1.4-2.2-0.2-0.8 2.9-2-0.1-3.6 1.5-1.8-1-4.1 0.4-1.8 0.4-3.2-0.4-1-3.3-1.2-1-5.1-2.3-2.6-0.7-0.7 0.7-1.5-2.2-0.1-2.3 1-3.5-1.5-1.4-1.6-0.6-1-1.4h-6.4l-2.7-0.6-4.4-1.5-2.3-1.3-2 0.3-0.7-1.3 0.2-1.8-1.3-2.6-1.9-3.2-0.9-4.2 3.1-2 4-2.2 5.2-1.7 6.6 0.4 4.8-0.2 1.1 1 1.8-0.8 5.5 0.4 2.6 0.1 4.1 0.9 5.1-0.6 1.9-1.5 2.6-0.3 2.7 3.2 6.8 1 1 0.4 6.1 3.3 3 2.3 1.7 0.7 2.8 0.5v0z" stroke-linecap="round" stroke-linejoin="round" stroke-width=".5"/>
	<path d="m696.1 487l0.4 2.4 1.7 1.7 3.1 1.2v1.6l-1 1-0.6 3.4-1.5-0.7-2.2 0.7h-1.6l-2.4-1.3 1.2-1.9-2.3-2.6 0.2-1.9 1.5-2.8 1.4-1.5 2.1 0.7z" stroke-linecap="round" stroke-linejoin="round" stroke-width=".5"/>
	<path d="m956.6 357.9l2.1 0.3 0.6 1.2 3.6 1.8 0.8 2.4-0.9 1.8-0.3 3.5 2-0.4 1.1 0.6 0.4 1.3 1.9 2.3 1.5 0.9 2.2 4.6-0.3 1.9-1.4 0.3-1.5 0.9-2.7 2.7-0.4 1.9h-3.5l-3.4-0.4-1.2 0.4-1.3 1.7-2.9 0.7-2.6-0.5-1.7-0.7-3-2.3-6.1-3.3-1-0.4-6.8-1-2.7-3.2-2.6 0.3-1.9 1.5-5.1 0.6-4.1-0.9-2.6-0.1-5.5-0.4-1.8 0.8-1.1-1-4.8 0.2-6.6-0.4-5.2 1.7-4 2.2-3.1 2-1-3.1-0.8-6.1v-3.1l2.1-1.8 0.9-1.4 0.6-5 2.7-4.1 2.7-0.5 3.4-1.2 3.9-1.1 1.6 2.1 5.5 3.2 1.4 1.1 2.6 3.7 4.9 1.9 3.4-0.7 4-2.8 1.1-1.3v-1.2l-1.5-5.2-1.3-2.2 0.1-1.5 9.3-3.3 1.7 1.1 1.2-0.8 6.3 2.6 2.6 0.5 0.7 0.8 4 2.9 3.1 1.2 4.4-1.4 3.8 1 2.5 0.2v0z" stroke-linecap="round" stroke-linejoin="round" stroke-width=".5"/>
	<path d="m1005.5 559.8l-2.3-2.5 1-0.8-1.7-5.5-0.2-2.9 0.9-5.4-0.6-3.2-1.6-2.5-1.6-3.2-3.4-2.3-1.5-1.9-2.4-2-2.9-3.5-1.7-1.4-3.5-5.4-2.9-3.3-2.8-1.7-2.3 0.1 0.2-0.7 2.5-1.6 0.8 0.2h4.5l1.3-1.1 0.9 0.3 1.8-1.2 3.9 1 4.1 2.6 2.8 0.3 0.7 1.3 6.3 0.5 1.6 2.1 1.6 1.1 1.5-0.8 1.6 1.5 0.7 2.5-0.6 3.5 0.7 1.3 2.6 1.3 3.3 2.2 0.1 2.7 1.1 2.1 2.3 1.4 2.4 0.8 1.2 1.8 0.3 3.2 3.3 1.8-0.7 0.8-3.2 0.5-1.4-1.4-1.8 0.7-2.4-0.8-2.1-0.2-2.4-1.1-2.7 1.8 0.6 2.3 1.2 1.9-0.4 2.2-2.5 2v1.4l-2.7 3.3 0.6 1.5-0.4 1.1-2.2 0.3-1.5 1v0z" stroke-linecap="round" stroke-linejoin="round" stroke-width=".5"/>
	<path d="m931.4 615.6l3.8 3.5 3.8 1.9 2 3.6 1 1.1-0.5 1.9 0.1 4.7-2.2 0.4-0.2 2.3-3.2 1.2-3.7-0.6-3.3 0.5-0.9 0.4-1.8 2.8-2.6 1.5-2.6-0.6-1 0.7-5.1 0.5-1.5-1.2-1.8 0.3-1.5-2.6-1.4-1.2-1.4-2.4-0.3-2.1-0.8-2.2 0.9-0.9-0.4-2.3 0.5-2.9 1.9 0.3 0.5-0.9 0.2-2.9 3.8-1.8 1.1-0.1 1.8 1.3 1.6-2.2 2.3-0.5 2.4-0.4 2.2-1.1 2.1 0.3 2.5-0.9 1.7 0.6v0z" stroke-linecap="round" stroke-linejoin="round" stroke-width=".5"/>
	<path d="m884.8 595.6l0.5 1.3 2.9 1.8 2.2 2.2 3.4 1.7 2.4 0.5 6 3.1 0.1 1.1-1.8 0.5-0.2 0.8-2.2 0.5 1 1.6-0.2 1.5-3.8 1.4-0.9-2.3-1.2-0.3-3.4 6-0.9 0.4-2.8-0.2 1.8 2.1 1.9 0.8 0.3 0.7 0.1 3.5-2.4-1.3-1-2-3.5-3.2-4-2.1 0.1-1.1-1.8 0.2-1.4-2.1 1.2-1.1 0.1-0.9-1.3-1.8-0.7-3.3 0.5-0.8 1.9-0.3-0.1-1.7 0.5-1.9 2.2-1.9 2.6-0.3-1.6-2.4 3.5-0.7v0z" stroke-linecap="round" stroke-linejoin="round" stroke-width=".5"/>
	<path d="m907.8 411.2l0.7-0.7 2.6 0.7 5.1 2.3 1.2 1 1 3.3 2.5 5.6 3.4 5.4 2 4 1.1 4.3-0.6 1.8-4.4 2-0.9 0.6-2.2 3.1v1.3l3.7 1.4 2 1.1 0.9 1.1-0.2 2.7 0.5 1.2-0.9 1.7 0.1 1.4 1.2 1.8 1.4 2v1.4l3.1 3.1 2.2 3.1 1.6 1.1-1.3 1.5 2.1 2.9 0.1 1.4-1.3 2-3.3 0.6-5.2 5.2-2.6 3.1-3.7 5-0.6 1.1 1.8 4.2-0.1 2 2.2 1.5-0.4 1-3.7-0.7-1-0.2-6.4-2-0.9-1.5-1.1-0.8-3.5-1-4-0.2-3.6 0.3-1.5 1.7-2-0.1-2.9-1-3.3 0.2-2.5 1.2-1.2 2.4-1.9-0.6-1.6 0.5-0.7-3-1.6-0.4-3.4-3.3-2.4 1.5-1.1 1.9-2.5 0.1-0.6-1.7-1.5-0.2-0.6-1.8-3.2-2.4-0.6-2-3-0.8-0.6 0.2-3.9-1.9-2 1.2-1.1-0.6-3.1-2.5 1.5-0.6v-1.8l-4 0.9-3.7-2-2.5-0.6h-1.4l2 2.6-3.8 2.9-1.1-0.4-1.7-2.1-2.3-2-1.8-1 1.8-1.4 0.8-1.2-2-1.3-3.5 0.9-0.9-1-3-1.2-5.2-1.1-1.1-1.2-0.4-1.2-3.7-0.8 0.2 2.1-2.3 0.5 1.7-4.1 0.4-2.6-1.9-3.5-2.5-0.9v-1.8l-2.2-3.4 0.9-1.2 0.7-2.9-0.9-2.1-2.3-2.5 0.6-2.9-1.6-1.9-3.7-2.3-1.8-1.5 0.7-1.8 2.1-2.1 0.3-3-2.1-4.5-0.8-2.9 3.1 0.9 0.8-0.6-0.2-2-4.6-0.7-0.1-1.3 2.2 0.4 4.2-1.7 7.2-2.2 7.6-2.1 3.7-0.6 2.2-2.5 2.1-1.9 4.2-0.9 1.4-0.9 3.1-1.4 7.3-1.5 6.1-0.6 6.1 2.4-1 0.4-3.4-1.3 2.5 3.8 1.3 1.3 2.3 1 1.9 0.3 5.4-0.7 2.4-1.3 0.6 0.1 7.4 0.3 25.5 0.4h7.4v0z" stroke-linecap="round" stroke-linejoin="round" stroke-width=".5"/>
	<path d="m512.3 714.4l-1.3 0.3-5 2.9h-1.4l-2.8-1.2-5-0.3-1.7-0.3-2 0.8h-1.7l-1.2 1.1-0.9-0.3 1.1-2.4 1.7-4.6-0.1-2.9 0.4-2.5-0.4-2.3-0.8-1.5 1.1-3.9v-2l-1.1-2.5 3.1 0.3-1.9-1.5h-1.7l-2.5 1.1-1.7 0.1 0.1-1.6-0.6-2 2.2-0.7 1.7-1.9-0.4-1.8-1.3 1.3-0.6 1.6-3.1 0.9-1.7-0.5v-2.1l0.6-1.9 0.4-2.6 0.8-2.5-0.3-1.6 1.8-1.5 1.5-2.2 4.6-10-0.7-1.1 1.7-7.4 1.3-2.6 0.6-4.8-0.3-2.2-0.8-2.2-0.9-4.8v-1.6l-1-2 0.1-1.1 1.5-1.9 1.3-1.3 2.1-1.1 4.5-1.2 1.2 2-1.4 2.2 1 1.4 3.3-1.3 3.2-0.2 2.5 0.8h1.6l2.8-1.1 0.9-1.6 1.7 0.5h5.8l0.8 1.2 0.2 3.5 2.1 0.2 2.1 1 0.4 1.2-2.8 2.8-2.3 1.3-1.7 1.6-1.2 1.8-2.2 1.8 0.9 2.2 0.5 3.9-0.4 4.2 0.5 1.2-3 2.4-0.2 1.1 1.6 1.4v2.1l-1.8 3.9-1.1 0.6-4.8 0.1-1.2 0.4 1.3 2.1 1.6 1.3 0.4 2.1 1.9 3.5 1.9 0.4 0.6 0.9-0.6 2.7-3.5 3.4-0.9 4.5 3.5 4.7 1.9-0.3-0.7 2.7-2.3 0.7-3.8 4.9-0.8 2.5 1.2 7.3v0z" stroke-linecap="round" stroke-linejoin="round" stroke-width=".5"/>
	<path d="m1005.5 559.8l1.7 1.7 2 1 4.5 0.9 0.6-1.4 1 0.3 1.8-0.6 2.4-1.5 2.4-0.3 2.5 0.7 2.2 2-0.1 4.8-0.7 2.4-6.9 1.6 0.4-0.7-0.8-2.2-1.1-1.1-1 1.2 0.7 1.9-0.7 1.6-0.2 2.7 0.7 1-1.7 2.3-0.5 1.5 1 5.3-0.4 4.1-2.2 0.1-2.9-0.5-2.5-0.7-2.9-2.8-1.9 0.6-1-0.6-3.6-0.4-5.1-2.5-3.2 0.5-4.9 1.1-3.5 1.4-3.6 2.4-1.3 1.8-1.8 1-2.5 0.7-4.7-0.1-10.5-1.7-2.8 0.6-3.9-0.4-5.9-1-4.4-0.2-4.1 0.8-1-2 2-2.3-4.9-2.7-0.9-1.3-1.8-1-0.6-1.9 2.7-2.1-3.4-1.7-1.9 0.6-1.8 2-1.4 0.3-1.1-1.3-1.7-0.7-3.9-0.7-1.7-1.3-2.4-0.6 0.2-0.7 2-0.9-2.6-1.2 1.6-2.3-1-1.2-2.9-0.8-4.3-2-2.5-2-0.5-4.6-0.9 0.2-2.1-2.2-3.3-1.8-2-1.9 3.5-1.1 1.6 0.5 2.7-2.3 2.9 0.3 1.4-1 1.6-5.3 2.3-1.7-0.3-1.4 1.7-3v-1.3l1.5-1.7 0.7-2.8 1.5-1.6-0.2-1.9 1.3-1.1 2.1-2.7 5.1-1.3 2.4-2.6 2.3-1.1 1-1.4h0.8l3 1.6 3-0.2 7.7 1.4 4-0.9 1.3 0.3 4.9 3.6 2.3-0.6 1.1-1.4 3.8-1.5 9.3-1.5 1.2-2.1 0.2-1.6 4.1-1 2.3-0.1 2.8 1.7 2.9 3.3 3.5 5.4 1.7 1.4 2.9 3.5 2.4 2 1.5 1.9 3.4 2.3 1.6 3.2 1.6 2.5 0.6 3.2-0.9 5.4 0.2 2.9 1.7 5.5-1 0.8 2.5 2.3v0z" stroke-linecap="round" stroke-linejoin="round" stroke-width=".5"/>
	<path d="m894 551l1.9 2.2 3.3 1.8 2.1 2.2 0.9-0.2 0.5 4.6 2.5 2 4.3 2 2.9 0.8 1 1.2-1.6 2.3 2.6 1.2-2 0.9-0.2 0.7 2.4 0.6 1.7 1.3 3.9 0.7 1.7 0.7 1.1 1.3 1.4-0.3 1.8-2 1.9-0.6 3.4 1.7-2.7 2.1 0.6 1.9 1.8 1 0.9 1.3-1 0.8-0.2 2.1-2.3 1.2-0.4 2.6 0.7 2.7 2.8 4.3 3.3 1.6 1.5 1.8 1.8 1.1-0.3 1.6-1.7 1.9-1.2 1.8-2 0.2-1.2 0.7 0.1 3.7 1.6 3.2-1.2 1.9-1.1 0.4-1.6-0.7-2.5 0.9-2.1-0.3-2.2 1.1-2.4 0.4-0.7-1.4 1.1-1 1.3-3.6 0.2-1.3-5.3-1.2v-1.4l-2.5-1.3-0.2-0.8-2.6-2.3-3.2-1.4-1.3-1.4-1.9 1 0.7 1.8-0.4 1.1-1.9 1.5v1.6l-1.7 0.6-0.1-1.1-6-3.1-2.4-0.5-3.4-1.7-2.2-2.2-2.9-1.8-0.5-1.3 0.8-0.9 2.8 0.3 0.2-2.5-3.7-4 0.5-0.9h3.5l0.3-0.9-3.8-3.1-2.7-1.3-0.6-0.9v-2.9l1.7-3 0.5-2.8-1.7-0.9-3.1 0.9 1.1-1.8-0.8-2.9 1.9-0.5 2.6-0.2-1-1.6-3.4-1-1.4-1.1 0.4-2.2-1.5-0.4-0.3-1.8-1.9-3 0.7-1.7 2.3-1.5 1.8 0.5 2.4-1.2 1.6-1.8 1.1-0.4 3.2 0.4 1.2-0.3 3.1 0.3 1.6-0.1v0z" stroke-linecap="round" stroke-linejoin="round" stroke-width=".5"/>
	<path d="m918.8 499.8l-1.6 3.4-0.8 3.3-1.7 1.9 0.2 2.8-4.8 1.3-0.7-0.2-2.5-2.4-1.6-1-5.1 0.9-2.8-0.6h-3l-2 0.5-1.7 3.9-5.5 2.9-3.9-1.5-0.8 0.2-1.1 1.7-2.7 0.7-4.8 0.6-1.5 0.8-0.4 1.1 0.6 1.4-0.6 1.1-7.8 0.6h-5.2l-1.8-0.7-4.7-2.9-2.3-0.3-2.6-3.2-1.9-3.2-0.1-0.9 0.9-2.7 1.2-3.1 1.5-1.4 4 0.5 1.9-0.3 1.7-0.8 2.3-2.2 1.8-0.9 0.7-3.4 2.5-1.4 0.6-0.9 2.2-1.7 3.1-0.4 1.5 0.2 0.6 1.7 2.5-0.1 1.1-1.9 2.4-1.5 3.4 3.3 1.6 0.4 0.7 3 1.6-0.5 1.9 0.6 1.2-2.4 2.5-1.2 3.3-0.2 2.7 1.1 2 0.1 1.5-1.7 3.6-0.3 4 0.2 3.5 1 1.1 0.8 0.9 1.5 6.4 2 0.8 0.4v0z" stroke-linecap="round" stroke-linejoin="round" stroke-width=".5"/>
	<path d="m842.2 545.5l-2.8-0.6-1 0.9v1.9l-2.2 0.1-0.8 1.1-4.9 2-0.4 1.6 1 1 0.3 2.4-0.4 1.2-2.3 0.7-2.3 1.2 1.1 1.2-0.8 0.8 0.9 2.5-1.3 0.5-1.8-0.2-2.2-0.7-1.4 0.6-1.7-0.7-3-2.3-1.3 2.5-0.7 0.3-4 0.2-1.2-0.5-1.5 1.5-3.7-0.8-0.6-0.7 1.9-1.3 1.7-0.1-0.3-1.4-1.7-1.4-2.1-1.2 0.4-2.2-1.5-0.2-0.4-1.1 1.7-2.4-2.6-0.7-0.8-1.5 3.6-2.6 0.2-1 5.6 0.9 5.6 0.7 3.3-1.4 1.1-1.5 2.1-0.8 2.9-0.3 3.1 0.2 2.5-1.3 1.8-0.3 2.7 0.5 0.1-2.1 1.4-1 2.7 0.1 1.6 3.6 2.4 2.1v0z" stroke-linecap="round" stroke-linejoin="round" stroke-width=".5"/>
	<path d="m987.5 652.2l-3.2 0.6-0.1-1.7 2.4-0.7 0.9 1.8zm216.3-28.9l4.8 1.3 1.2-1.1h4l3.8 0.8 1-2.1 1.6-0.5 1.6 0.3 0.7 1.2 1.3 0.4 4 2.7 1.3 1.9 2.1 0.2 1.5 1.3 1.5 1.8 1.9 1.3 2 3.6-0.2 2.6-1.1 1.6 0.9 2.1 2.2 3.3-0.5 0.7 2 1 3.3 0.9 3.9-0.5 1.8 0.7 2.6 1.8 3.6 3 0.9 1-3.7-2-1.5 1.8v4.2l-0.7 0.5h-3.1l-1.3 0.5 1.4 2.8 1.6 1.3 0.1 2.6 2.4 2.7 0.3 2.3 1.1 2.4 0.4 2.4 0.6 0.8 1.6 0.3-0.6 4.3-0.6 1.4-0.4 2.2 1.9 0.6 3.6 2.1 0.1 1.4 0.7 1.7 0.4 2.2 3.6 2.5 0.1 2.6-2.4-0.5-4 3.5-1.4-1.3-0.4-2.7-1.7-1.6-1.5-0.2-2.3 1.6-4.7-0.2-3.3-1.2-3.3-0.8-2.1 0.7-2.5-0.7-1.6 2.2-2.2 2.2-1.3 0.4-1.8-2.9-1.5-0.2-1.3 1.5-2.4 0.9-5.1 1.2-3.6 0.4-4.6-0.6-3.6 0.3-3.4 1.6-5.7 3.3-4.5 1.7-4.7 1.1h-8.5l-1.2-0.3-4-2.5-3.8-0.6-3.7 1.9-2.5 0.9-3.9 1.9h-5.4l-2.2-1.8-4.1-0.7-0.6 1.8-0.2 4.2 2.1 3.4-3.6 1.6 0.1 2.9-2 1.3-0.9 1.8-2.5-1.3-1.1-0.1 0.7-1.5-2.9-5.4 0.7-1.7 3.8-4.4-0.5-2.7-2.3-1.7-3.2 2.4-1.9 0.9-0.3 1.3-1.2 0.9-2 0.5-3.3-1-3.6-1.5-2.1-1.2-1.6-0.3-1.4 0.6-3.8 3.2-3.4 4.6-0.9 0.9-3.5 2-2.4 0.7-1.1-0.1-4.9 1-2.4 0.2-1.8 1-3.9-1-2.5-1.4-1.6-1.4-2.6-3.2-1.8-1.4-3.7-1.3-6.5-3.2-5.9-0.6-4.5-0.2-0.8 1.2 0.2 4.7-0.5 1.4-0.1 2.5-1.2 1.3-2.4-1.1-2.1 1.1-4.1 1.5-1.3 0.1-5.2-1.7-3.3-2.3-0.7-2.2-1.5-3-2 0.4-2.6-0.4-3.6-1.7-2.7-0.1-1.3 2.1-1.1 0.8-1.5-0.4 0.9-1.5-4.1 0.3-2 1.2-1.7-0.1-1.1-1.1 2.2-0.7 4.3-0.5 1-0.5 1-1.5 1.9-1.4-1.4-0.5-6.7 0.5-4.7-0.1-1.1 0.8-0.5-1.8 4-1.7-0.4-1.4-4.7-2.3-0.4-1.8-2.3-3.4 2.1-0.6v-2.8l-0.5-1.7-4.4-1.4-0.9 0.1-1.3-1.4-1.9-1-1.3 0.8-3.5-1-0.7-0.7 0.5-1.6 1.1-1.3-1.1-2.1-0.1-1.1 2-0.2 1.1 1.2 0.4 2.4 4 0.7 3.2-0.7-2.8-1.2-1.3-1.3-1.4-2.5 2-1.3 1.3-1.9-3-1.3 0.2-2.7-2.9-2.9 0.3-0.9 2.5-3.2-1.4-0.8-4.8 0.9-1.8 0.7-3.5 0.3-0.4-1.8 0.6-1.5-0.6-3.8 0.2-2 1.9-0.7 1.8-3.1 3.3-3.5 3.9-0.1 1.4-1 2.3-0.1 0.9 1.3 2.1 1 3.6-0.2 1.5-1-1.8-1.6 1.9-0.6 1.7 0.4-0.1 2 4.6-0.7 4.9 0.3 1.6-0.3 3.8-0.1 0.5-0.6-4.1-1.8 2.2-1.7 7.5-1.5 4.1-1-6.4-0.7-1.6-0.6-2.3-1.5-1.1-1.2 0.3-2.9 0.7-0.8 2.4-0.2 8.6 1.1 5.9-1 6.8 1.9 6.2-0.6 1.2-0.8 1.2-2.9 8.1-4.9 2.6-2.4 3.1-1.4 5.5-1.7 4.4-2 1.3-0.3 11.6 0.6 7.8-0.1 3.3-1.9 2.2 0.5-0.1 2.3 3 2.8 3.9 1.5 4.9-1.4 2 0.5 2.6 4.4 1.7 1.5 2 1 1.5 0.2 1.6-1.6 1.9-0.2 3.3 1.4 1.4 1.5 5.4 1.1 4.8 0.6 2.3 1.3 6.9 1.2 2.4-0.3 4-1.5 7.8-1.6 5.8 2h2.8l1.9 0.5 1.9-0.4 5.5-2.7 1.5-1.4 1.9-0.5 5.7-3.8 1.6-1.1v0zm-191.8-3.6l-0.1 2 1.2 2.2 2.6 3 2.3 1.5 9.1 3.5 1.6 0.3-0.9 3.9-2.3 0.6-7.2-1.5-1.8-0.1-3.2 1.6-2.6-0.4-3.4 0.7-0.6 2.4-2.2 2.7-3.6 2.2-2.8 1.2-3.8 4.2-1.6 2.5-1.7 0.8 0.5-2.2-0.4-1.9 2.5-2.3 3.6-1.9 0.7-1.5-6 0.5-3.7 0.1-1.2-2 0.9-0.5 2.7-3.6-0.7-4.9 3.7-2.9-1.1-3.4-2.6-1.6-1.3-0.3 0.3-1.6 2.1-0.4 1.1-2.5 3.8-0.5 1.6-1.3 3.9-0.4 3.9 2.7 1.7-0.7h2l1-0.5 2 0.3v0z" stroke-linecap="round" stroke-linejoin="round" stroke-width=".5"/>
	<path d="m1055.7 545.7v0.7l-4.4-0.8-1-1 5.4 1.1v0zm-29 16.9l-2.2-2-2.5-0.7-2.4 0.3-2.4 1.5-1.8 0.6-1-0.3-0.6 1.4-4.5-0.9-2-1-1.7-1.7 1.2-0.8 2.2-0.3 0.4-1.1-0.6-1.5 2.7-3.3v-1.4l2.5-2 0.4-2.2-1.2-1.9-0.6-2.3 2.7-1.8 2.4 1.1 2.1 0.2 2.4 0.8 1.8-0.7 1.4 1.4 3.2-0.5 0.7-0.8-3.3-1.8-0.3-3.2-1.2-1.8-2.4-0.8-2.3-1.4-1.1-2.1-0.1-2.7-3.3-2.2-2.6-1.3-0.7-1.3 0.6-3.5-0.7-2.5-1.6-1.5-1.5 0.8-1.6-1.1-1.6-2.1-6.3-0.5-0.7-1.3-2.8-0.3-4.1-2.6-3.9-1-1.8 1.2-0.9-0.3-1.3 1.1h-4.5l-0.8-0.2-2.5 1.6-0.2 0.7-4.1 1-0.2 1.6-1.2 2.1-9.3 1.5-3.8 1.5-1.1 1.4-2.3 0.6-4.9-3.6-1.3-0.3-4 0.9-7.7-1.4-3 0.2-3-1.6h-0.8l-1 1.4-2.3 1.1-0.8-1.9-1-0.8-2.6-0.4-1-1.2-2.5-0.8-1.6-2.5h-1.7l-0.2-2.8 1.7-1.9 0.8-3.3 1.6-3.4 3.7 0.7 0.4-1-2.2-1.5 0.1-2-1.8-4.2 0.6-1.1 3.7-5 2.6-3.1 5.2-5.2 3.3-0.6 1.3-2-0.1-1.4-2.1-2.9 1.3-1.5-1.6-1.1-2.2-3.1-3.1-3.1v-1.4l-1.4-2-0.1-1.6 1.2-0.6 2.1 0.3 1.2 0.5 2.1-1.4 1.7-1.8 0.9-1.6 6.6-0.7 2.6-0.6 2.7-0.2 8.7 0.2 7.3 1.5 6.8 0.8 2.6-0.1 2.1 2.3 1.1 0.3 3.3-0.2 1.2 0.4 0.9 1.5 1.3-1.9 2.1 0.5 2.1-0.8 5.7 1 0.9 1.4 1.1 0.3 0.6-1.2 4.2-1.9 2.9 3.3 0.7 0.5 2.5-0.9 7.9-0.8 2.3 1.2 0.6 1.3 3 0.9 0.9-1.6-2.1-4 1-3.7 0.9-1.4 2.4-2.6 1.2-0.6 1.9 0.4 1.5-0.9h5.6l2.9 0.8 1.9-0.2 2-1 0.5-2.7 1.8-0.7 4.1 0.9 1.1-0.1 3-1.4 1.8-0.3 2.2 0.3 3.8-0.3 2.8 1.5 1.6 1.5 2 3 4.5 3.2-0.1 1.1-3.2 0.6 1.5 2.1 0.6 2.2 1.4 1.9-0.4 1.1h3.5l3.3 1 4.6-0.7 1.7 2.4 2.1 0.2 0.2 1 1.6 3.1 1 1.2-0.2 2 0.6 1.1 2.2 1.7 0.8 1.1 1.2 0.4 2.5-1.6 3.1 0.4 3.1 2.2 2.6-0.1 1.9 1.2 1.5-1.5 4.8-1.1 2.5-1.2 1.1 0.1 2.6 1.9 0.6 1.3 1.7 1.7 5.3 3.1 1.4-0.7 1-1.7 2.9 1.5 2.7 0.2 4.1 2 1.6 0.1 1.8-0.7 2.3 2 2.1 0.2 5 2.5 3.2-0.4 1.1 0.9-0.1 1.9 1.1 1v2.9l-1.8 2.4-2.5 0.9 1.3 1.6 3.5 0.9-1 1-1.6-0.2-0.9 1.1-0.3 2.6 2.8 0.7 1.4 3.1v1.2l1.3 0.3-1.3 5.3-0.1 2-4.7 0.3-6.7-0.2-1 0.2-1 2.1-2.5 1.6-1.9 0.3-0.9 0.9 0.1 2.6-0.4 1.5 1.2 0.8-0.7 1.8 0.6 1.4-0.6 0.1-4.8-0.1-3.8 0.4-2.3 2.7h-1.7l-3.5 1.8-1.5 1.9-1.6-0.9-3.4 0.6-1.9 1.3h-3.5l-2.5 0.7-5 4.4-1.4 0.1-1.1-1.1-1.7 2.9-2.6 1.4 0.7 3.4 3.2 4.9 4.1 4.3 1.9 1.5 2.7 0.7 3.4-1.6 2.7 0.4 1.9-1.4 1.7-0.1 4.1 1-1.2 2.8-0.3 2.9-2.1 0.7-2.5-0.1-2.4 0.5-3-1.6-2.8 0.1-1.2 2.1-2.5 1.5-0.6 1.6-2.9-0.3-2.3 0.3-3.1 1.6-2 3.2-2.5 2.1-2.1 0.6-2.2-0.1-1.5-0.6-3.3-1.9 0.7-2.2 0.5-3.9-1.4-3.2-2.6-1.5-1.8 0.3-1-0.3-4.2-2.6-2.1-0.2-2.1 0.6-1.7-1.3 3.8-3.3 3.8-2.8 1.9-0.3 2.3-1.4 2.4-1.8-1.5-2.5-2.1 0.7-2.5-1.2-1-0.9-3.4 1-2-0.1-4.2 1-2.1-0.8-4.5-2.1-2.9-0.3v-1.1l2-0.4 0.1-1.1-4.3-0.6-0.1-1.4 2.2 0.5 3.6 0.1 3.2 0.5 2.3-2.1-2.7 0.6-3.2-0.5-2.4-2-2.4 1.4-3.6-0.5-2.7 1-2.6-0.2-4.5 1.3-0.4 3.2-2.1 4.5-3.4 4.2-5.1 2.5-1.9-0.4-1 1.2 0.3 1.4 1.1 1 1.3 3.4 0.5 2.2v0z" stroke-linecap="round" stroke-linejoin="round" stroke-width=".5"/>
	<path d="m920.5 617l-2.3 0.5-1.6 2.2-1.8-1.3-1.1 0.1-3.8 1.8-0.2 2.9-0.5 0.9-1.9-0.3-0.2-2.4-1.6-3.5-2.2-1.4-1.6-0.5-2.3-3.2-0.6-0.4 0.2-1.5-1-1.6 2.2-0.5 0.2-0.8 1.8-0.5 1.7-0.6v-1.6l1.9-1.5 0.4-1.1-0.7-1.8 1.9-1 1.3 1.4 3.2 1.4 2.6 2.3 0.2 0.8 2.5 1.3v1.4l5.3 1.2-0.2 1.3-1.3 3.6-1.1 1 0.6 1.4v0z" stroke-linecap="round" stroke-linejoin="round" stroke-width=".5"/>
	<path d="m669.8 466.2l-0.6 1.4-3.5 1.8-4.4-1.1-1.3 0.7-1.4-0.8-0.4-1.4 3.1-0.5 3.9 0.7 1.7-0.7 1.4 0.5 1.5-0.6v0zm-4-5.8l1.7 1.5-1.7 0.4-1.8-1.1 1.8-0.8v0zm20-10l-3.4-0.4-1-0.8 2.6-2 3.5-1.8 1.9 0.4 0.6 1-1.2 1.3-3 2.3v0zm-8.8-12.6l-1.2 1.3-0.7-1.5 1.9-1.6v1.8 0zm-7.2 28.4l-2.9-0.8-2.4 0.6-3.1-0.7-1.9-1.4 1.3-0.8 2.6-0.2 4.5 0.7 1.3-1-0.7-1.1-2.6-2.3 1.7-3 1.5-1.1 3.5-4.3 1-2.3 1.2-6.2 1.1-2.3 1.6 0.5 2.2-0.9 3.7-2.3 1.1-1.9 1.1-1 4.4-1.9 2.3-0.5 9.9-0.8 2 1.8 3 0.6 0.2 4.8-0.7 1.9-1.1 4.3h-3.5l-0.6 1.8 0.8 1.1 2.9 0.3 0.9 1.1-0.6 2.9-2.9 1.8-0.3 1 1.1 1-0.8 1.1-5 1.6-2.6-0.8-2 0.8-0.8 1.2 3.6 4.5v1.3l-1.4 3.2 0.8 1.3-2.4 1.8-0.5 0.9 2.1 1.3-0.6 2.7-1.3-0.1-2.7-0.3-0.8-1.2 1.2-1.5 1-3.3-2.9-1.2-1.9-1.4-2.1 0.5-2.9-1.5-0.6-1.8-2.8 1-1.3-1.4-1.6 1.2-1.7-0.9-1.5 0.8 0.2 1-2.3-0.2v0zm19.7-17.9l1-1-0.6-2.1-2.3-0.3-0.6-0.9 0.4-2.8-3.1-0.4-0.5-2.8-1.7 0.4-2.5 1.7 0.7 1.4 1.8 1.7v1l-2.3 0.8 0.2 2.9-0.2 1.8 6.1 1.4 3.6-2.8v0z" stroke-linecap="round" stroke-linejoin="round" stroke-width=".5"/>
	<path d="m639.2 681.2l-0.4 1.1-2.2-0.4v-1.7l1.3-1.8 3-0.8 0.9 1.4-2.6 2.2v0zm23.8-15.7l1.4 0.5 1.4-0.6 1.6 0.4 0.2 1.1-2.4 4-0.6 1.6-2.3 1.5-4.5-1.8-0.4-1.8-1.6-0.7-1.9 1.5-1.6-1.1-0.4-1.3 5.8-4.3 1.6-1 3.5-1.1 0.6 1.3-0.4 1.8v0zm16.4-1.3l-0.3 0.2-4.4-2-1.8-0.4 0.1-1.6 2.9-0.3 2.4 0.7 1.4 2-0.3 1.4v0zm-87.7-59.9l0.6 1.4 4.8 1.3-0.3 3.6 2-0.5 4.9 1.8 2.5 0.2 2.5 2.3 4-0.5 3.6 2.3 3.4-0.5 0.8 0.4 5.2-0.1 0.8-2.7 4.5 1.1 2.8 1.1 1.9 0.3 1.3 1.6 0.1 2.3 0.8 0.4 3.1-1.3 3.2 1.3 1.5 1.3 2.3-1.3 5.3 1.2 1.3-0.9 4.2-1.3 3.5 0.6 1.4 2.4-2 0.6-0.2 1.6 1.4 1.4 0.2 2.3-3.3 3.2-9.6 5.5-3.2 3.1-7.3 1.8-5 1.8-2.4 0.6-4.5 4.3 1.2 0.3 1.4 1.3-0.4 0.7-2.8 1.3h-1l-3.1 5.2-2.8 3.7-1.6 1.7-1.7 2.5-3.4 6.3-0.1 1.8 1.9 6.1 2.5 3 2.7 1.2 0.7 1.1-0.9 1.1-2.6 2-4.7 2.7-2 2.2-0.3 2-1.4 0.9-0.5 2.8-1.9 4.9 1.5 1.3-1.4 0.9-7.2 0.5-4.5 3.2-2.2 2.7-2 5.1-2.4 3-1.1 0.6-1.7-1.4-2.1-0.1-2.1 0.4-1.1 1.1-1.7 0.6-1.7-0.5-5.1-0.1-2.5 0.9-2.1-0.5-3.6-0.3-7.8 0.8-4.4 3.9-3.8 0.1-3.4 1.4-2.3 3.4-0.5 1.8-1.1-0.3-0.3 1.3-2.3 0.9-2.7-1.1-2.3-1.6-1.1-0.1-1.8-2.4-1.4-3.4v-1.2l-1.7-0.6-0.4-1.6 0.2-1.8-1.4-2.2-5.7-4-4.1-0.2-3.3 0.6-1.4-7.1 0.8-2.5 3.8-4.9 2.3-0.7 0.7-2.7-1.9 0.3-3.5-4.7 0.9-4.5 3.5-3.4 0.6-2.7-0.6-0.9-1.9-0.4-1.9-3.5-0.4-2.1-1.6-1.3-1.3-2.1 1.2-0.4 4.8-0.1 1.1-0.6 1.8-3.9v-2.1l-1.6-1.4 0.2-1.1 3-2.4-0.5-1.2 0.4-4.2-0.5-3.9-0.9-2.2 2.2-1.8 1.2-1.8 1.7-1.6 2.3-1.3 2.7-2.8-0.4-1.2-2.1-1-2.1-0.2-0.2-3.5-0.8-1.2h-5.8l-1.7-0.5-0.9 1.6-2.8 1.1h-1.6l-2.5-0.8-3.2 0.2-3.3 1.3-1-1.4 1.4-2.2-1.2-2-4.5 1.2-2.1 1.1-1.3 1.3-1.5-0.1-0.1-2.8 2.8-3-1.8-0.2 1.3-2.1-1.1-1.1v-2.9l-2.5 1.1-0.6-1.3 1.5-2.5-1.6-0.2-2.6-2.7 0.8-3.5 2.2-1.2 2.1-1.7 2.9 0.3 1.9-0.4 4-1.9-0.5-1.7 0.4-0.8 3.5-2 2.2-0.3 2.1-1.1 1.5 0.5 1.2-0.1 1.5 0.6 1.9 1.7 2.8 0.6 2.2-0.6 4-0.2 1.9 0.2 3.6-0.4 2 0.1 3.2-1 2.6 1.1 4.9 0.3 2.9 0.8 8.1 1.4 3-0.1 4.1-1 1.8-0.6 1.7 0.3 2.3-0.7 2.6 1.1 5.3 1.3 2.3-1.5 3.8 0.6 3.7 1.4 2 0.1 2.9-0.4 3-1.1v0z" stroke-linecap="round" stroke-linejoin="round" stroke-width=".5"/>
	<path d="m750 611.1l-0.3 2.6 1.2 1.9 0.8 7.2-1.9 3.6 0.2 3.3-1.7 4.8-0.9 1.2-4.3-2.1-1.4-1.2 1.1-2-2.5-0.9 0.4-1.9-0.2-1-1.8-0.5 1.1-1.5v-0.9l-1.7-1.1-0.4-1 1.4-1.3-0.7-1 0.1-1.5 1-2.1 1.3-1 3.1-1 1.3-1.3 2.1 0.6 0.6-1.4-0.3-3 0.3-1.2 1.5 0.5 0.6 3.2v0zm-150.5-50l-0.4 1.6-2.2-2.6 1.1-0.6 1.5 1.6zm92.7-64.1l2.4 1.3h1.6l2.2-0.7 1.5 0.7 1.6 0.1 4 4.7 2-0.8 1.6 0.4 0.4 1 2.3 0.1 3.3-0.7 2.3 1.5 5.4 0.8 1.8 0.6 0.1 1.4-3.8 4.3-1.4 6.2-1.1 2-0.3 1.7 0.3 2.7-0.6 2.2v1.7l1.3 1.4-1.7 0.8-0.9 1.6-3 0.4-0.9-0.9h-1.2l-2 1.6 1.5 1.2-0.6 1-4.1 4.6-2.3 1.1-0.5 3.2-3.3 2.5-1.2 3.3 0.9 0.8-0.3 1.7-1.6 1.2v1.1l1.6 0.1 2.5-1.8-0.6-1.4 2.5-1.7 2.1-0.2 2.5 0.3 0.9 2.4-0.5 1.9 2.6 2.5 1 1.5-2.9 2 0.2 1.8 1 0.6 2 2.9 2 1.7-0.8 2.8-1.3 0.4-1.9 1.5-2.1-0.2-0.9 0.5 1.7 3.4 3.6 1.5 0.6 1.9-0.9 0.8-1.5 2.8 0.8 1.4 0.1 1.6 1 1 5.7 2.5 3.7-0.8 0.4 2.2-2.3 3 0.3 1.7-0.7 0.3-0.9 0.4-2.6 1.3-4.3 3.9-2 1.2-0.7 2-2.2 1.6-2.7 0.6-2.5 1.2-1.2-0.4-3.1 0.1-1.9-1.3-3.8-0.8-1.3-2h-2.8l-0.9-1.7-2.1 0.4-1.7 0.8-2.2-0.1-6.6-1.9-1.6-1.5-1.9 0.6-1.7 1.8-7.1 4.7-2.8 4.9-0.1 1.3 0.9 4.3 1.8 2.7-3.5-0.6-4.2 1.3-1.3 0.9-5.3-1.2-2.3 1.3-1.5-1.3-3.2-1.3v-1.7l-2.9-0.6-1 0.8-1.3-1.6-1.9-0.3-2.8-1.1-4.5-1.1-0.8 2.7-5.2 0.1-0.8-0.4-3.4 0.5-3.6-2.3-4 0.5-2.5-2.3-2.5-0.2-4.9-1.8-2 0.5 0.3-3.6-4.8-1.3-0.6-1.4 2.2-0.6 2.1-2.2 1.7-8 1.2-9.3 1.1-1.8 1.3-0.5-1.1-1.3-1.2 1.7 0.6-8.5 0.5-3.1 0.9-3.4 3.5 2.6 0.9 1.1 1.1 3.8 0.7 0.1-1.3-5.1-2.1-2.5-4.1-2.5-0.6-1.4 2-0.7-0.6-2-0.7-6.6-3.4-0.6-5.4-2.8-2-2.9-1.8-2.1-0.5-1.9 1-2-0.9-1.2-1.6-0.9 1.2-1.8-3.3-0.1-2-0.5-0.4-1.2 1.4-1.6-1.8-0.9-2.9 0.3-0.3-1.9-2.4 0.4-1.3-0.3-1.3-1.2-1.4 0.3-2.5-0.4-0.9-0.8-5.4-1.3-2.2-0.1-2.1 0.7-1.2-0.3-1.5-2.4-3.5-1.1 0.7-0.8 3.4-0.7 0.7-0.8-2.5-0.9-0.3-1.3 1.8 0.3 0.1-1.3-4.5 0.2-0.5-1.4 0.5-1.6 2.5-1.4 6.4-1.7 2.8 0.2 1.9-0.3 3.3-1.9 3.2-0.5 3 0.8 2.9 3.1 1.4 1.1 3.4-2h4.9l1 1 1.3-1.9 1.1 1.1 5.2-0.3-1.7-2.7-0.4-6.7-1.5-1.9-2.4-4.7 0.2-1.6 3.6 0.3 3-0.7 1.5 0.4 0.4 3.1 1.3 1.8 2.5-0.1 2.6 0.5h3.3l4.8 0.8 2-0.6 3.9-2.3-2-0.7-0.2-0.8 0.9-2.5 5.7-2.9 4.1-0.9 4.2-1.5 2.2-1.6 1.3-2 0.5-1.5 0.2-7.6 1.1-2.5 3.2-1.9 7.1-1.4 1-0.6 1.1 2.4v1.3l3.3 2.6 3.5-1.2 1.8 2 0.6 2.2 4.7 1.1 0.7 2.2 1-0.4 4 0.4 1.8 1.2-0.4 1.8 0.8 0.8-0.7 1.6 0.6 0.7 2.6 0.3 2.4-0.4 1.4-0.7 0.5-1.6 2.1-0.7-0.8 3 0.7 0.7 0.5 2.2 1.9 0.1 3.7 1.6 3.2 2.8 3.6-0.7v0z" stroke-linecap="round" stroke-linejoin="round" stroke-width=".5"/>
	<path d="m875.2 195.7h69.3l3 1.8 2 1 0.2 2.1-3.3 3.4-2.8 3.5-1.3 1.9 0.5 1.9 3 2.3 2.6 2.4 3.4 3.8 3.4 2.7 3.4 4.6 0.5 1.6-4.1 0.9 1.4 1-0.6 1.5 0.4 2.1-0.5 1.7 2.1 0.3 0.4 1.4-1.9 1.2v1l1.6 1.9 1.1 0.6 3.6 0.6 1 1.8-1.1 1.9 2.1 2.4 5.1 1.9 0.8 1.4 0.3 1.9-2.6 3.4-2.2 0.9 0.8 0.9 5.1 2.8 7.4 3.1 2.9 1.4 2.4 2.1 2.5 1.7 0.6 1.1-1.7 5.1-0.8 1.4-2.4 2.5-3.7 3.2-2.5 2.6-5.8 6.7-2.1 1.7-2.3 2.5-5.4 3.8-0.8 0.9-2.7 1.7-6.1 5.9-3.9 1.2-2.9-1.2-2 0.3-1.3 0.9-2.8 0.3-2.2 0.7-1.1-0.8-0.8 0.7-2.1 0.3-2.3-1.1 0.4 1.7-3.6 1.8-0.9-1-2.2 1.2-2.3 0.3-1.2 0.9-6.5 1.4-1.6 1.5-1.3-0.3-7.4 1.4-3.2-0.2-3 2.3-2 0.5 1.6-3.4-2.7-1.2-1.4-1.8-0.8 0.5-0.3 1.7-1.7 0.9-2.2-0.1-0.5-2.7 0.8-2.6-4-0.6-4.3-1.5-1-0.1-0.8-1.4-2.2 1.1-2.4-1-2-5.9v-1.4l1-1.8-0.2-3.8-0.7-2.2 1.2-0.7-1-1.8-2.5-3.3-1.8-1.2 0.5-3.7-0.7-1.8-2.1-1.2-1.3-3.2 0.6-2.7 2.6-2.5v-1.3l1-1.2-0.6-1.4 3-0.6 1.1 0.4 2.7-0.5 2.1-1.2-1.3-2 1.7-0.8 1.3-1.4-0.1-1.1 2.6-0.6 2.6-2.2 2.5-1.3 2.5-2.2 1.2-0.1 0.3-1.5 2.7-2.2 0.9-1.8 2.5-2.1 2.4-4.4 4.2-1.4 4.2 0.2-0.7-1.9 1.1-0.4-0.7-1.4-1.1-0.6-0.1-5.1-1.5-1-5.1-1.7-1.9-0.1-1.4-1.3-5.1-0.7-1.8-2.7-2.2-2.4-2-0.6-1.5-2.9v-1.4l1.6-1.5-0.2-2 0.7-1.6-0.7-1-3.7-2.8-0.9-1.8 0.1-1.2 1.1-0.9-0.7-1.4-3.1-0.4 0.3-2.1-0.8-1.5-0.5-2.7 1.2-1.1-1.6-0.4zm25.2 44.9l-1.1-1.4-2.2 0.7 0.2 1 1.5 0.3 1.6-0.6z" stroke-miterlimit="10"/>
	<path d="m812.5 195.7h62.7l1.2 0.5-1.2 1.1 0.5 2.7 0.8 1.5-0.3 2.1 3.1 0.4 0.7 1.4-1.1 0.9-0.1 1.2 0.9 1.8 3.7 2.8 0.7 1-0.7 1.6 0.2 2-1.6 1.5v1.4l1.5 2.9 2 0.6 2.2 2.4 1.8 2.7-3 0.4-2.5-0.6-1.1 0.4-4.2 0.4-1.2 0.8-2.4-0.7-2.3-1.3-2.2 1.3-1.8-1.1-1.1 2.1 0.2 2-2-0.2 0.4 1.2-2.2 1.7-3.6 0.3 0.8 1.7-1 0.8 1.2 1.9-1.4 1.7-2.3 2.2-0.5 1.1 1.9 1.2 1.8 2.7 1.8 1.2-0.4 1.3-2.3 1.3-2.4 2-2.1 4.8-3.4 1.5-2.6 1.8-3.3 0.9-2.6 2.5-2-0.8-1.7 0.6-1.1 2-2.1 1.7-2.7-0.2 0.2 0.9-2.6 0.4-1 4.5-2.4 0.7-0.8 0.9-1-0.6-2.3 0.2 1.9 3.1-1.8 2h-1.3l-1.7 0.8-2.1-0.8-0.2 1.3 0.9 1.4 1.5 1.1-0.1 1.5-0.9 4.8 0.8 2-2.3 1.4-0.9 1.2 0.7 1.9-0.1 1.2 0.8 2.1 1 4.7 1.3 2.2-0.1 1.8 1.5 1 2.3-0.2 1.6 1.7 3.4-1 0.9 1.2 3.3 2.4 1.9 0.3 2.1 1.3v1.7l3.3 1 2.2 2.2 0.9 1.8-0.1 1.1-2.9 1.7-1.4 1.5-4.2 2.4-0.7-0.1-2.3 1.2 2.2 0.6 1.5-0.8 2.9-0.7 1.6 1.3-2.4 0.6-0.3 1.8-0.9 1.1-2.2 0.8-3.1 1.7-4.4 1.7-1.2 1.4-2.9 1.2-1.4 0.9-4.2 0.1h-4.1l1.1 1 1-0.2 4 0.4 1.9 1.4-3.3 1.1 2 3.5-0.8 0.9 0.5 3.9-1.2 0.1-0.3 1.6 0.7 2.8 1.2 2.3-0.1 1.1-1.6 2.7 1.1 3.2-1.5 5.9-2 3.5-1.3 4.6-2 1.6-2.7-0.9-3.8 0.6-3.6-0.3-3.3 0.3-0.9 0.5 0.8 1.5-2.6-0.2-1.9 1.3-2.2 2.4v1.7l2.2 3.3-1.8 2.3h-1.2l-3.6-0.5-6.1 1.5-5.7-1 0.5-1.1 0.1-3.5-0.7-1.9-1.5-1.2-3.6-4.2-1.4-2.5 2.7 0.9 1.1-0.6-2.1-2.9 2.4-0.2 0.8-1.1-0.7-1.7-2.1-0.6-2.2-2.6-2-1.3-4-5.2-1.5-3.5-1.2 0.4-1.4-4.1-1.9-0.6-0.8-4.1-2-0.4-1.5-1.9-0.5-3.6-1.4-0.6-0.9-1.5-1-3.3-0.4-3-1-2 0.5-1.4 1.2-0.3 1.2 0.9 1.2 2 2.1-0.3 0.7-1.6 0.6-4.4-1.9-4.9 1.6-1.7 0.9-2.7 2.9-0.8 1.4-0.9 2.1-2.3v-3.1l0.6-2.4-0.6-1.5-3.6-5.4-0.4-1.8 2-0.7 2.7-0.1 1.4-2.8 0.4-2.1-3.9-2.9-1.3-0.4-4.3-2.2 0.8-7.2v-1.8l-2.9-4.8 0.1-2-0.7-3.1 1.2-1.3-3.1-4.5 2.2-3.2-0.6-1.7 1.3-1.1 3.8-4.3 3.6-1.8 3.7-0.5 7.9 0.8 1.8-2.5-0.1-1.3-1.3-3.2-5.3-1.7 4.8-5.7 3.6-5.7v-5.2l0.6-3-1.2-3.8 4.2-0.5 2.7-0.6 3.6-1.8-1.2-2.8 1.4-1 3.3-3.3 3.6-3.3 1.6-1.2 0.2-1.6-1.1-1.4-3.1-2.5 0.5-1.2 3-0.7 1.2-1.3 1.6-3.9 4.1-2.2 1.6-1h0.3l6.9 1.8 1.1-1.8zm11.4 175.5l-1.1 0.4-2.1 5.2 0.4 4.2 1.7 0.3 2-8.5 0.7-0.6 0.3-2.5 1.6-3.6-0.6-2.2-2.9 7.3zm27.5-15.9l-1.7-1h-1.4l-3.7 1.2-1.4 1.3-2.9 3.3 0.7 3.6-0.4 1 1.6 2.3 1 0.8-1.3 2.7 2.3-1.1 0.3-1.8 1.6-1.8 2-0.7 0.7-2 1.4-0.6-1.7-1.3-0.2-3.7 1.5-0.6 1.6-1.6z" stroke-miterlimit="10"/>
	<path d="m669.9 305.3l0.7 1.8h-2l0.3-1.5 1-0.3zm90-109.6h-1.4l-1 1.1 0.5 1.3 1.8-0.4 2.1-1.2 2.1-0.3 1-0.7-5.1 0.2zm33.6 0.7l-1.1 0.9-1.7-0.3-0.6-1.4h-6.4l-2.1 0.9-0.3 1.7-2.6 0.1-2.5 2.3 1.1 2.2 2-0.4 2.9-1.3-0.7 1.7 1.8 1.6-0.6 0.9-2-1.1-1.9-0.2-2.2 1.2-3.1 3.1 0.5 0.7 3.9-0.3 7 0.2-0.1 0.7-7.4 0.3-3.3 0.9-1.6-0.2-2.6 0.6-2.3 2.4-2.5 0.9-0.1 1.7-1.9 1.3-1.6 0.3-2.1 2.5-0.2 1.7 1 3 2.7-0.2 7.1-1.4-0.5 1.1-2.7 1.1-3.3 0.1-6.9 1.4 2.4 1.2 0.3 1.2-1.9-0.2-1.4 0.8-0.5 1.5-3.7 3.8-1.4 3.2 0.4 1.3 2.4 0.5 0.5 0.7h1.7l2.3-1.2 0.4 0.8-2.5 1.8-2.3 0.3-1.8-1.4-7.5 3.3-1.5 1.1-0.4 2.4 3-1.1-0.3 1.1-3.8 0.8-3.3 1.7-1 1.2-3.1 1.3-3.5 3.8-2.5 1.5-1.5 2.6-1.8 0.9-1.4 2.5 2.3 0.1 2.2 2.7 1.6 0.1 3.3-1 6.7-3.3 1.2-1.3-1.7-1.1 1.8-1 2.7-1.1 1.9 0.6-3.2 1.7 1.6 0.3 0.9 1.1-2.9 1.4-1.9 0.4-2.6 1.2-0.4 1.1 1.1 1.4-2 0.3-3-0.3-3 0.6-1.2 0.6-0.6-1.2-3.2-2.3-4.3 1-1.9 1.7-1-0.5 0.6-1.5-3.6-0.8-3.1 0.9-2.1 1.1v1.3l2.5 0.3v1.8l-3.7 0.5-1.2 1.9 5.8 4.3-4.9-1.8-1.4-1.4-2.9-0.3-3.5 0.3-2.1 1.3-4.5 1.1-2.5 2.6 0.1 1.4 5.4-0.9 2 0.5 7.6-1.1-5.9 1.7-0.4 2-2.6-0.8-6.6-0.4-4.7 0.6-2.6 2.6 0.2 0.6 3.9-0.6 1.5 0.5-4.4 1-1.4 0.1-2.3-1.1-2.2 0.6-2.1 1.2-2.1 2.6-1.4-0.6-1.2 0.5-0.4 2.1 0.8 1.1 1.3 0.3 2.4-0.2 8.1 1.3 3.2-0.1 0.9 0.6-5.5 0.5-6.7-1.5-4.2 0.2-1.7-0.2-0.7 1.5 0.3 1.6 2.2 1.4 2.2 2.5-3.1 0.4 0.4 2.9 1 1 2.8 1.3 1.6 0.1 2.3-0.8 5.2-0.5 3.8 0.5 1.2-0.4 0.5-1.5 1.5 0.6 3.6 0.6 4-0.4-0.1-1.6 3.4 1.6-6 1.5-0.8 0.6-2.5-1.3-2.1 0.2-2.2 0.8-1.6 0.1-3.8-0.6-5.8 1.1-2.7 0.3-2.4-0.4-1 0.6 0.2 2.8 0.6 2.4 2.5 2.2-1.2 2 0.7 2.1 1.4 1.6 1.6 0.7 3-0.1-2 1.4-3.6-0.1 0.4 1.8-1.2 2.3 0.1 2.7 1.6-0.4 3.1-2.2 0.6-1.4 1.6-1.7 2.2-1.1 0.2-1.2 2.9-3.2 2.2-1.3 5.5-1.4-1.6 2.2-1.8-0.6-2 0.9-2.4 2-0.3 1.7-1.3 1.6-3.1 2.7 1.4 1.1 4.6-0.7-2.6 1.4-1.4 0.3-1.1 1.1-3.8-0.7-2 1.2-1.3 3-0.5 3.7 0.6 1 2.3-0.1 1.2-0.7 1.2-1.4 3.4-1.1 3.7-2.3 0.5 0.8-2.8 2.4 0.3 1.8-0.8 2 2.7 1.7 0.1 1.3-3.2-1.4-3-0.8-0.7 0.6-0.2 4 0.9 1.8 1.6 1.5 3.5 1.4 1 0.9 4.3 1.7h3.5l-0.7 2.7 1.8 0.4 0.9-1.4 1.3 0.1v1.2l1.2 0.8 2.3-0.5 3.5 0.4 5.1-1.1 2-1h1.6l1.8-1.4 2.5-1.3 4.7-4.5 3-1.7 0.6-1 1.9-1.2-1.1-0.8 3.8-1.5 0.9-1.1 1.2-0.3 0.7 1.1 1.4-0.3 1.4-0.9 1.2 0.2 2.7-4.4-0.1-2.6-0.7-1.2 2.8-1.4 0.5 3.4 2.6 3.2 6.7 1.2 0.5 1.1 1.2 2 2.1-0.3 0.7-1.6 0.6-4.4-1.9-4.9 1.6-1.7 0.9-2.7 2.9-0.8 1.4-0.9 2.1-2.3v-3.1l0.6-2.4-0.6-1.5-3.6-5.4-0.4-1.8 2-0.7 2.7-0.1 1.4-2.8 0.4-2.1-3.9-2.9-1.3-0.4-4.3-2.2 0.8-7.2v-1.8l-2.9-4.8 0.1-2-0.7-3.1 1.2-1.3-3.1-4.5 2.2-3.2-0.6-1.7 1.3-1.1 3.8-4.3 3.6-1.8 3.7-0.5 7.9 0.8 1.8-2.5-0.1-1.3-1.3-3.2-5.3-1.7 4.8-5.7 3.6-5.7v-5.2l0.6-3-1.2-3.8 4.2-0.5 2.7-0.6 3.6-1.8-1.2-2.8 1.4-1 3.3-3.3 3.6-3.3 1.6-1.2 0.2-1.6-1.1-1.4-3.1-2.5 0.5-1.2 3-0.7 1.2-1.3 1.6-3.9 4.1-2.2 1.6-1h-11.6l0.9 0.7zm-54.1 48.1h-1.3l-2.3 0.9 0.4 1.2 4.7-0.4-1.5-1.7zm-26.8 19.2l-3 0.7 0.4 1 3.7-0.6-1.1-1.1zm43.9-64.9l-0.5-1.7-1.2 0.8-1.2 2.9 1.7-0.8 1.2-1.2zm-8.6 34.3l-2 0.4-0.1 1.2 2.2-0.4-0.1-1.2zm4.5-6.4l0.1 1.2 1.8-0.5 0.3-1.7-1.1-0.4-1.1 1.4zm-46.3 44l0.2-1.5-0.8-0.5-3.1 1 1.1 0.9 2.6 0.1zm105.3-73.2l1.2-1.8h-8l6.8 1.8zm-139.8 119.7l-0.8 0.6 0.3 2.2 0.8 1.2 1.1 0.1-0.2-1.9-1.2-2.2z" stroke-miterlimit="10"/>
</g>
</svg>
