<svg xmlns="http://www.w3.org/2000/svg" viewBox="0 0 438.28 63.91">
  <defs>
    <style>
      .a {
        fill: #b91e1e;
      }

      .b {
        fill: #ffed00;
        fill-rule: evenodd;
      }

      .c {
        fill: #1d1d1b;
      }
    </style>
  </defs>
  <title>logo</title>
  <g>
    <path class="a" d="M0,32a32,32,0,1,1,32,32A32,32,0,0,1,0,32Z"/>
    <path class="b" d="M31.45,18.17c-.58,2.35-.92,3.62-3,4.35s-4.65-.07-5.87-3.32S22.37,11.31,24.93,8s4.13-4.88,7-4.88S36.4,4.74,39,8s3.54,7.92,2.33,11.17-3.73,4.08-5.87,3.32-2.42-2-3-4.35a4.06,4.06,0,0,0,2,.48c1.63-.26,2.13-1,2.93-1.23a12.79,12.79,0,0,0-3-1.1,3.28,3.28,0,0,0-1.42.2A2.27,2.27,0,0,0,33.18,15,10.54,10.54,0,0,0,32,12a10.64,10.64,0,0,0-1.23,3A2.27,2.27,0,0,0,31,16.52a3.28,3.28,0,0,0-1.42-.2,10.92,10.92,0,0,0-3,1.13c.83.27,1.29.94,2.92,1.2a4,4,0,0,0,2-.48Z"/>
    <path class="b" d="M45.76,31.48c-2.35-.58-3.62-.92-4.35-3s.07-4.65,3.32-5.87S52.62,22.4,55.91,25s4.88,4.13,4.88,7-1.6,4.44-4.88,7S48,42.54,44.73,41.32s-4.08-3.73-3.32-5.87,2-2.42,4.35-3a4.05,4.05,0,0,0-.48,2c.26,1.63,1,2.13,1.23,2.93a12.81,12.81,0,0,0,1.1-3,3.29,3.29,0,0,0-.2-1.42,2.27,2.27,0,0,0,1.53.25,10.54,10.54,0,0,0,3-1.22,10.64,10.64,0,0,0-3-1.23,2.27,2.27,0,0,0-1.53.25,3.28,3.28,0,0,0,.2-1.42,11,11,0,0,0-1.13-3c-.27.83-.94,1.29-1.2,2.92a4,4,0,0,0,.48,2Z"/>
    <path class="b" d="M32.45,45.79c.58-2.35.92-3.62,3-4.35s4.65.07,5.87,3.32.24,7.89-2.33,11.17-4.13,4.88-7,4.88-4.44-1.6-7-4.88S21.39,48,22.61,44.76s3.73-4.08,5.87-3.32,2.42,2,3,4.35a4.05,4.05,0,0,0-2-.48c-1.63.26-2.13,1-2.93,1.23a12.78,12.78,0,0,0,3,1.1,3.28,3.28,0,0,0,1.42-.2A2.27,2.27,0,0,0,30.72,49a10.53,10.53,0,0,0,1.22,3,10.66,10.66,0,0,0,1.23-3,2.27,2.27,0,0,0-.25-1.53,3.28,3.28,0,0,0,1.42.2,10.91,10.91,0,0,0,3-1.13c-.83-.27-1.29-.94-2.92-1.2a4,4,0,0,0-2,.48Z"/>
    <path class="b" d="M18.14,32.48c2.35.58,3.62.92,4.35,3s-.07,4.65-3.32,5.87S11.28,41.56,8,39s-4.88-4.12-4.88-7S4.71,27.53,8,25s7.92-3.54,11.17-2.33,4.08,3.73,3.32,5.87-2,2.42-4.35,3a4,4,0,0,0,.48-2c-.26-1.63-1-2.13-1.23-2.93a12.81,12.81,0,0,0-1.1,3,3.29,3.29,0,0,0,.2,1.42A2.27,2.27,0,0,0,15,30.75,10.54,10.54,0,0,0,12,32a10.64,10.64,0,0,0,3,1.23A2.27,2.27,0,0,0,16.49,33a3.29,3.29,0,0,0-.2,1.42,10.94,10.94,0,0,0,1.13,3c.27-.83.94-1.29,1.2-2.92a4,4,0,0,0-.48-2Z"/>
    <path class="c" d="M116.66,25.61a2.07,2.07,0,0,0-.29-.93.71.71,0,0,0-.59-.24H99.65v4.35H110.5a.75.75,0,0,0,.59-.22,1.86,1.86,0,0,0,.29-.9H112v8.21h-.59a2.41,2.41,0,0,0-.29-1.08.71.71,0,0,0-.59-.24H99.65v8.16a.76.76,0,0,0,.22.56,2.18,2.18,0,0,0,1.15.32v.59H90.76v-.59a2.18,2.18,0,0,0,1.15-.32.76.76,0,0,0,.22-.56V19.94a.76.76,0,0,0-.22-.56,2.19,2.19,0,0,0-1.15-.32v-.59h25a.68.68,0,0,0,.59-.27,2.61,2.61,0,0,0,.29-1.1h.59v8.5Z"/>
    <path class="c" d="M139.48,18.18a19.81,19.81,0,0,1,5.89.86,14.57,14.57,0,0,1,4.84,2.52,12.15,12.15,0,0,1,3.3,4.11,12.53,12.53,0,0,1,1.22,5.67A12.53,12.53,0,0,1,153.51,37a12.13,12.13,0,0,1-3.3,4.1,13.56,13.56,0,0,1-4.84,2.44,22.57,22.57,0,0,1-11.78,0,13.55,13.55,0,0,1-4.84-2.44,12.12,12.12,0,0,1-3.3-4.1,12.52,12.52,0,0,1-1.22-5.67,12.52,12.52,0,0,1,1.22-5.67,12.14,12.14,0,0,1,3.3-4.11A14.56,14.56,0,0,1,133.59,19,19.81,19.81,0,0,1,139.48,18.18Zm0,6a9.47,9.47,0,0,0-3.05.49A8,8,0,0,0,133.89,26a6.69,6.69,0,0,0-1.76,2.25,7.4,7.4,0,0,0,0,6.11,6.66,6.66,0,0,0,1.76,2.25A8,8,0,0,0,136.43,38a9.79,9.79,0,0,0,6.11,0,8,8,0,0,0,2.54-1.39,6.67,6.67,0,0,0,1.76-2.25,7.4,7.4,0,0,0,0-6.11A6.69,6.69,0,0,0,145.08,26a8,8,0,0,0-2.54-1.39A9.47,9.47,0,0,0,139.48,24.14Z"/>
    <path class="c" d="M189.28,38.22a.68.68,0,0,0,.59-.27,2.61,2.61,0,0,0,.29-1.1h.59V45.3h-.59a1.72,1.72,0,0,0-.29-1,.87.87,0,0,0-.59-.17H163.77v-.59a2.18,2.18,0,0,0,1.15-.32.76.76,0,0,0,.22-.56V19.94a.76.76,0,0,0-.22-.56,2.19,2.19,0,0,0-1.15-.32v-.59h10.07v.59a2.19,2.19,0,0,0-1.15.32.76.76,0,0,0-.22.56V38.22Z"/>
    <path class="c" d="M219.34,43.59a2.5,2.5,0,0,0,.68-.07q.24-.07.24-.56a3.22,3.22,0,0,0-.44-.88q-.44-.73-1.12-1.81T217.19,38q-.83-1.22-1.56-2.35t-1.32-2l-.78-1.12-4.79,4.3v5.86a.76.76,0,0,0,.22.56,2.18,2.18,0,0,0,1.15.32v.59H200v-.59a2.18,2.18,0,0,0,1.15-.32.76.76,0,0,0,.22-.56V19.94a.76.76,0,0,0-.22-.56,2.19,2.19,0,0,0-1.15-.32v-.59H210.1v.59a2.19,2.19,0,0,0-1.15.32.76.76,0,0,0-.22.56v8.8h.34q1.47-1.42,3.15-2.93l3.1-2.81q1.42-1.29,2.37-2.2t1-1.1c0-.29-.08-.46-.24-.51a4.05,4.05,0,0,0-.64-.12v-.59h12.41v.59a4.25,4.25,0,0,0-.81.15,2,2,0,0,0-.59.29q-.27.2-.59.46l-.76.66L219,27.91l10,14.91a1.54,1.54,0,0,0,.73.68,3,3,0,0,0,.83.1v.59H219.34Z"/>
    <path class="c" d="M245.38,43.59a2.18,2.18,0,0,0,1.15-.32.76.76,0,0,0,.22-.56V24.44h-8.41a.68.68,0,0,0-.59.27,2.59,2.59,0,0,0-.29,1.1h-.59v-8.7h.59a2.58,2.58,0,0,0,.29,1.1.68.68,0,0,0,.59.27h24.14a.68.68,0,0,0,.59-.27,2.58,2.58,0,0,0,.29-1.1H264v8.7h-.59a2.58,2.58,0,0,0-.29-1.1.68.68,0,0,0-.59-.27h-8.41V42.71a.76.76,0,0,0,.22.56,2.18,2.18,0,0,0,1.15.32v.59H245.38Z"/>
    <path class="c" d="M274,43.59a2.18,2.18,0,0,0,1.15-.32.76.76,0,0,0,.22-.56V19.94a.76.76,0,0,0-.22-.56,2.19,2.19,0,0,0-1.15-.32v-.59h10.07v.59a2.19,2.19,0,0,0-1.15.32.76.76,0,0,0-.22.56V42.71a.76.76,0,0,0,.22.56,2.18,2.18,0,0,0,1.15.32v.59H274Z"/>
    <path class="c" d="M297.53,19.94a.76.76,0,0,0-.22-.56,2.2,2.2,0,0,0-1.15-.32v-.59h11.78v.59a2.62,2.62,0,0,0-1.1.22.49.49,0,0,0-.27.42,4.16,4.16,0,0,0,.63.88q.64.78,1.66,2t2.32,2.61L313.8,28q1.32,1.44,2.54,2.74l2.1,2.22v-13q0-.83-1-.88v-.59h8.94v.59a2.19,2.19,0,0,0-1.15.32.76.76,0,0,0-.22.56V42.71a.76.76,0,0,0,.22.56,2.18,2.18,0,0,0,1.15.32v.59h-9.29v-.59a1.84,1.84,0,0,0,.9-.15.45.45,0,0,0,.22-.39.71.71,0,0,0-.15-.37,8.11,8.11,0,0,0-.63-.76q-.49-.54-1.44-1.54t-2.52-2.69Q311.9,36,309.6,33.5t-5.52-6.13V42.71a.76.76,0,0,0,.22.56,2.18,2.18,0,0,0,1.15.32v.59h-9.29v-.59a2.19,2.19,0,0,0,1.15-.32.76.76,0,0,0,.22-.56Z"/>
    <path class="c" d="M352.36,34.85a.56.56,0,0,0-.54.27,1.91,1.91,0,0,0-.2.71H351V29h.59q.1.88.73.88h14.42v.59a.74.74,0,0,0-.78.83v8.11a1.55,1.55,0,0,0,.1.59c.06.16.23.24.49.24h.24v.59a33.19,33.19,0,0,1-15.74,3.52,23.06,23.06,0,0,1-5.94-.76,14.92,14.92,0,0,1-5.06-2.37,12.25,12.25,0,0,1-3.54-4.08,11.92,11.92,0,0,1-1.34-5.79,11.92,11.92,0,0,1,1.34-5.79,12.51,12.51,0,0,1,3.54-4.11A15.37,15.37,0,0,1,345.15,19a21.76,21.76,0,0,1,5.94-.81q1.22,0,2.15,0a16.37,16.37,0,0,1,1.81.2q.88.15,1.81.37t2.2.56a15.85,15.85,0,0,1,2.25.81,4.58,4.58,0,0,0,1.32.46.84.84,0,0,0,.68-.39l.59.2-3.18,6.45-.59-.34a1.7,1.7,0,0,0,.1-.54q0-.34-.83-.76a11.45,11.45,0,0,0-2.1-.76,26.87,26.87,0,0,0-2.86-.59,20.38,20.38,0,0,0-3.1-.24,11.89,11.89,0,0,0-3.35.46,8.35,8.35,0,0,0-2.83,1.44,7.15,7.15,0,0,0-2,2.42,7.53,7.53,0,0,0-.73,3.45,6.39,6.39,0,0,0,.88,3.4,7.73,7.73,0,0,0,2.22,2.37,9.51,9.51,0,0,0,3,1.37,12.77,12.77,0,0,0,3.27.44,25.07,25.07,0,0,0,3.69-.24,24,24,0,0,0,3.15-.68V34.85Z"/>
    <path class="c" d="M395.81,34.8a1.54,1.54,0,0,0-.42-.81,1.45,1.45,0,0,0-1-.32h-9.09v4.54h15.69a.68.68,0,0,0,.59-.27,2.87,2.87,0,0,0,.29-1.2h.59v8.36h-.59a1.28,1.28,0,0,0-.29-.78,1,1,0,0,0-.59-.15H376.55v-.59a2.19,2.19,0,0,0,1.15-.32.76.76,0,0,0,.22-.56V19.94a.76.76,0,0,0-.22-.56,2.2,2.2,0,0,0-1.15-.32v-.59h24.39a.68.68,0,0,0,.59-.27,2.6,2.6,0,0,0,.29-1.1h.59v8.5h-.59a2.61,2.61,0,0,0-.29-1.1.68.68,0,0,0-.59-.27H385.25V28.3h9.09a1.44,1.44,0,0,0,1-.32,1.54,1.54,0,0,0,.42-.81h.59V34.8Z"/>
    <path class="c" d="M419.71,43.59a2.18,2.18,0,0,0,1.15-.32.76.76,0,0,0,.22-.56V24.44h-8.41a.68.68,0,0,0-.59.27,2.58,2.58,0,0,0-.29,1.1h-.59v-8.7h.59a2.58,2.58,0,0,0,.29,1.1.68.68,0,0,0,.59.27h24.14a.68.68,0,0,0,.59-.27,2.6,2.6,0,0,0,.29-1.1h.59v8.7h-.59a2.61,2.61,0,0,0-.29-1.1.68.68,0,0,0-.59-.27h-8.41V42.71a.76.76,0,0,0,.22.56,2.18,2.18,0,0,0,1.15.32v.59H419.71Z"/>
  </g>
</svg>
